{"failedCount":0,"prefixedPath":"src\/test\/java\/reqresIn\/get\/reqres-in-get.feature","packageQualifiedName":"src.test.java.reqresIn.get.reqres-in-get","loopIndex":-1,"relativePath":"src\/test\/java\/reqresIn\/get\/reqres-in-get.feature","scenarioResults":[{"sectionIndex":0,"stepResults":[{"result":{"nanos":125549700,"millis":125.5497,"status":"passed"},"step":{"background":true,"line":4,"prefix":"*","index":0,"text":"def responseSuccessful = read(\"successful-response-get.json\")"}},{"result":{"nanos":2171390800,"millis":2171.3908,"status":"passed"},"step":{"background":true,"line":5,"prefix":"*","index":1,"text":"call read(\"..\/post\/regres-in-post.feature@Create\")"},"callResults":[{"failedCount":0,"prefixedPath":"src\/test\/java\/reqresIn\/get\/..\/post\/regres-in-post.feature","packageQualifiedName":"src.test.java.reqresIn.get.post.regres-in-post","loopIndex":-1,"relativePath":"src\/test\/java\/reqresIn\/get\/..\/post\/regres-in-post.feature","scenarioResults":[{"sectionIndex":0,"stepResults":[{"result":{"nanos":1691100,"millis":1.6911,"status":"passed"},"step":{"background":true,"line":5,"prefix":"*","index":0,"text":"url \"https:\/\/reqres.in\""}},{"result":{"nanos":652700,"millis":0.6527,"status":"passed"},"step":{"background":true,"line":6,"prefix":"*","index":1,"text":"path \"\/api\/users\/\""}},{"result":{"nanos":490400,"millis":0.4904,"status":"passed"},"step":{"background":true,"line":7,"prefix":"*","index":2,"text":"def var = { \"username\": \"vic\", \"email\": \"victor@gmail.com\", \"password\": \"123\" }"}},{"result":{"nanos":3022900,"millis":3.0229,"status":"passed"},"step":{"line":10,"prefix":"Given","index":0,"text":"request var"}},{"result":{"nanos":2135834600,"millis":2135.8346,"status":"passed"},"step":{"line":11,"prefix":"When","index":1,"text":"method post"},"stepLog":"10:40:14.773 request:\n1 > POST https:\/\/reqres.in\/api\/users\n1 > Content-Type: application\/json; charset=UTF-8\n1 > Content-Length: 62\n1 > Host: reqres.in\n1 > Connection: Keep-Alive\n1 > User-Agent: Apache-HttpClient\/4.5.13 (Java\/1.8.0_202)\n1 > Accept-Encoding: gzip,deflate\n{\"username\":\"vic\",\"email\":\"victor@gmail.com\",\"password\":\"123\"}\n\n10:40:15.612 response time in milliseconds: 839\n1 < 201\n1 < Date: Sun, 19 May 2024 15:40:15 GMT\n1 < Content-Type: application\/json; charset=utf-8\n1 < Content-Length: 112\n1 < Connection: keep-alive\n1 < Report-To: {\"group\":\"heroku-nel\",\"max_age\":3600,\"endpoints\":[{\"url\":\"https:\/\/nel.heroku.com\/reports?ts=1716133215&sid=c4c9725f-1ab0-44d8-820f-430df2718e11&s=QxliNWQQ%2BQSxhHDNydmM%2FlQPpLDA%2FCBwxsZRuU5sTdk%3D\"}]}\n1 < Reporting-Endpoints: heroku-nel=https:\/\/nel.heroku.com\/reports?ts=1716133215&sid=c4c9725f-1ab0-44d8-820f-430df2718e11&s=QxliNWQQ%2BQSxhHDNydmM%2FlQPpLDA%2FCBwxsZRuU5sTdk%3D\n1 < Nel: {\"report_to\":\"heroku-nel\",\"max_age\":3600,\"success_fraction\":0.005,\"failure_fraction\":0.05,\"response_headers\":[\"Via\"]}\n1 < X-Powered-By: Express\n1 < Access-Control-Allow-Origin: *\n1 < Etag: W\/\"70-mVUhG\/xrMtHj4fahTrryf4DWKKw\"\n1 < Via: 1.1 vegur\n1 < CF-Cache-Status: DYNAMIC\n1 < Server: cloudflare\n1 < CF-RAY: 88652f351aed8dae-MIA\n{\"username\":\"vic\",\"email\":\"victor@gmail.com\",\"password\":\"123\",\"id\":\"962\",\"createdAt\":\"2024-05-19T15:40:15.723Z\"}\n\n"},{"result":{"nanos":24400,"millis":0.0244,"status":"passed"},"step":{"line":12,"prefix":"Then","index":2,"text":"status 201"}},{"result":{"nanos":1436900,"millis":1.4369,"status":"passed"},"step":{"line":13,"prefix":"And","index":3,"text":"def contactId = response.id"}}],"line":9,"description":"","durationMillis":2143.153,"failed":false,"tags":["Create","ignore"],"executorName":"main","name":"Post a user","startTime":1716133213480,"refId":"[1:9]","endTime":1716133215628,"exampleIndex":-1}],"callDepth":1,"name":"Reusable scenarios for post a user","description":"","resultDate":"2024-05-19 10:40:15 AM","durationMillis":2143.153,"passedCount":1}]},{"result":{"nanos":10902200,"millis":10.9022,"status":"passed"},"step":{"line":8,"prefix":"Given","index":0,"text":"url \"https:\/\/reqres.in\" + \"\/api\/users\" + \"3\""}},{"result":{"nanos":330426800,"millis":330.4268,"status":"passed"},"step":{"line":9,"prefix":"When","index":1,"text":"method get"},"stepLog":"10:40:15.644 request:\n2 > GET https:\/\/reqres.in\/api\/users3\n2 > Host: reqres.in\n2 > Connection: Keep-Alive\n2 > User-Agent: Apache-HttpClient\/4.5.13 (Java\/1.8.0_202)\n2 > Accept-Encoding: gzip,deflate\n\n\n10:40:15.966 response time in milliseconds: 322\n2 < 200\n2 < Date: Sun, 19 May 2024 15:40:16 GMT\n2 < Content-Type: application\/json; charset=utf-8\n2 < Transfer-Encoding: chunked\n2 < Connection: keep-alive\n2 < Report-To: {\"group\":\"heroku-nel\",\"max_age\":3600,\"endpoints\":[{\"url\":\"https:\/\/nel.heroku.com\/reports?ts=1716133140&sid=c4c9725f-1ab0-44d8-820f-430df2718e11&s=F9EZxQv%2B06LZHpMDK21TYS7m66yv8uaFPB2lGkAPHv8%3D\"}]}\n2 < Reporting-Endpoints: heroku-nel=https:\/\/nel.heroku.com\/reports?ts=1716133140&sid=c4c9725f-1ab0-44d8-820f-430df2718e11&s=F9EZxQv%2B06LZHpMDK21TYS7m66yv8uaFPB2lGkAPHv8%3D\n2 < Nel: {\"report_to\":\"heroku-nel\",\"max_age\":3600,\"success_fraction\":0.005,\"failure_fraction\":0.05,\"response_headers\":[\"Via\"]}\n2 < X-Powered-By: Express\n2 < Access-Control-Allow-Origin: *\n2 < Etag: W\/\"2c1-N6Rqerxquq2kgQhL51EiSg4x0R8\"\n2 < Via: 1.1 vegur\n2 < Cache-Control: max-age=14400\n2 < CF-Cache-Status: HIT\n2 < Age: 76\n2 < Vary: Accept-Encoding\n2 < Server: cloudflare\n2 < CF-RAY: 88652f38eb34dae9-MIA\n{\"page\":1,\"per_page\":6,\"total\":12,\"total_pages\":2,\"data\":[{\"id\":1,\"name\":\"cerulean\",\"year\":2000,\"color\":\"#98B2D1\",\"pantone_value\":\"15-4020\"},{\"id\":2,\"name\":\"fuchsia rose\",\"year\":2001,\"color\":\"#C74375\",\"pantone_value\":\"17-2031\"},{\"id\":3,\"name\":\"true red\",\"year\":2002,\"color\":\"#BF1932\",\"pantone_value\":\"19-1664\"},{\"id\":4,\"name\":\"aqua sky\",\"year\":2003,\"color\":\"#7BC4C4\",\"pantone_value\":\"14-4811\"},{\"id\":5,\"name\":\"tigerlily\",\"year\":2004,\"color\":\"#E2583E\",\"pantone_value\":\"17-1456\"},{\"id\":6,\"name\":\"blue turquoise\",\"year\":2005,\"color\":\"#53B0AE\",\"pantone_value\":\"15-5217\"}],\"support\":{\"url\":\"https:\/\/reqres.in\/#support-heading\",\"text\":\"To keep ReqRes free, contributions towards server costs are appreciated!\"}}\n\n"},{"result":{"nanos":14500,"millis":0.0145,"status":"passed"},"step":{"line":10,"prefix":"Then","index":2,"text":"status 200"}}],"executorName":"main","line":6,"name":"Get a user","description":"","durationMillis":2638.284,"startTime":1716133212770,"failed":false,"refId":"[1:6]","endTime":1716133215966,"exampleIndex":-1}],"callDepth":0,"name":"Get user on regres","description":"","resultDate":"2024-05-19 10:40:15 AM","durationMillis":2638.284,"passedCount":1}