{"failedCount":1,"prefixedPath":"src\/test\/java\/reqresIn\/get\/reqres-in-get.feature","packageQualifiedName":"src.test.java.reqresIn.get.reqres-in-get","loopIndex":-1,"relativePath":"src\/test\/java\/reqresIn\/get\/reqres-in-get.feature","scenarioResults":[{"sectionIndex":0,"stepResults":[{"result":{"nanos":168796201,"millis":168.796201,"status":"passed"},"step":{"background":true,"line":4,"prefix":"*","index":0,"text":"def responseSuccessful = read(\"successful-response-get.json\")"}},{"result":{"nanos":2276078900,"millis":2276.0789,"status":"passed"},"step":{"background":true,"line":5,"prefix":"*","index":1,"text":"call read(\"..\/post\/regres-in-post.feature@Create\")"},"callResults":[{"failedCount":0,"prefixedPath":"src\/test\/java\/reqresIn\/get\/..\/post\/regres-in-post.feature","packageQualifiedName":"src.test.java.reqresIn.get.post.regres-in-post","loopIndex":-1,"relativePath":"src\/test\/java\/reqresIn\/get\/..\/post\/regres-in-post.feature","scenarioResults":[{"sectionIndex":0,"stepResults":[{"result":{"nanos":2382900,"millis":2.3829,"status":"passed"},"step":{"background":true,"line":5,"prefix":"*","index":0,"text":"url \"https:\/\/reqres.in\""}},{"result":{"nanos":962700,"millis":0.9627,"status":"passed"},"step":{"background":true,"line":6,"prefix":"*","index":1,"text":"path \"\/api\/users\""}},{"result":{"nanos":670501,"millis":0.670501,"status":"passed"},"step":{"background":true,"line":7,"prefix":"*","index":2,"text":"def var = {\"name\": \"vic\", \"job\":\"qa\"}"}},{"result":{"nanos":3617299,"millis":3.617299,"status":"passed"},"step":{"line":10,"prefix":"Given","index":0,"text":"request var"}},{"result":{"nanos":2214361900,"millis":2214.3619,"status":"passed"},"step":{"line":11,"prefix":"When","index":1,"text":"method post"},"stepLog":"09:42:35.990 request:\n1 > POST https:\/\/reqres.in\/api\/users\n1 > Content-Type: application\/json; charset=UTF-8\n1 > Content-Length: 25\n1 > Host: reqres.in\n1 > Connection: Keep-Alive\n1 > User-Agent: Apache-HttpClient\/4.5.13 (Java\/1.8.0_202)\n1 > Accept-Encoding: gzip,deflate\n{\"name\":\"vic\",\"job\":\"qa\"}\n\n09:42:36.797 response time in milliseconds: 807\n1 < 201\n1 < Date: Sun, 19 May 2024 14:42:36 GMT\n1 < Content-Type: application\/json; charset=utf-8\n1 < Content-Length: 75\n1 < Connection: keep-alive\n1 < Report-To: {\"group\":\"heroku-nel\",\"max_age\":3600,\"endpoints\":[{\"url\":\"https:\/\/nel.heroku.com\/reports?ts=1716129756&sid=c4c9725f-1ab0-44d8-820f-430df2718e11&s=18TQleMHr%2F8DRy2nN%2BHjQi0WFuaSjUJGRk%2FyAmGAaDw%3D\"}]}\n1 < Reporting-Endpoints: heroku-nel=https:\/\/nel.heroku.com\/reports?ts=1716129756&sid=c4c9725f-1ab0-44d8-820f-430df2718e11&s=18TQleMHr%2F8DRy2nN%2BHjQi0WFuaSjUJGRk%2FyAmGAaDw%3D\n1 < Nel: {\"report_to\":\"heroku-nel\",\"max_age\":3600,\"success_fraction\":0.005,\"failure_fraction\":0.05,\"response_headers\":[\"Via\"]}\n1 < X-Powered-By: Express\n1 < Access-Control-Allow-Origin: *\n1 < Etag: W\/\"4b-Hj+MntN55ntOhmWuXHchlYzR6ek\"\n1 < Via: 1.1 vegur\n1 < CF-Cache-Status: DYNAMIC\n1 < Server: cloudflare\n1 < CF-RAY: 8864dac37b495d10-MIA\n{\"name\":\"vic\",\"job\":\"qa\",\"id\":\"845\",\"createdAt\":\"2024-05-19T14:42:36.907Z\"}\n\n"},{"result":{"nanos":21900,"millis":0.0219,"status":"passed"},"step":{"line":12,"prefix":"Then","index":2,"text":"status 201"}},{"result":{"nanos":15461000,"millis":15.461,"status":"passed"},"step":{"line":13,"prefix":"And","index":3,"text":"match response.name == 'vic'"}},{"result":{"nanos":1108601,"millis":1.108601,"status":"passed"},"step":{"line":14,"prefix":"And","index":4,"text":"match response.job == 'qa'"}},{"result":{"nanos":1482600,"millis":1.4826,"status":"passed"},"step":{"line":15,"prefix":"And","index":5,"text":"def contactId = response.id"}}],"line":9,"description":"","durationMillis":2240.069401,"failed":false,"tags":["Create","ignore"],"executorName":"main","name":"Post a user","startTime":1716129754582,"refId":"[1:9]","endTime":1716129756812,"exampleIndex":-1}],"callDepth":1,"name":"Reusable scenarios for post a user","description":"","resultDate":"2024-05-19 09:42:37 AM","durationMillis":2240.069401,"passedCount":1}]},{"result":{"nanos":206370600,"millis":206.3706,"status":"passed"},"step":{"line":8,"prefix":"Given","index":0,"text":"url \"https:\/\/reqres.in\" + \"\/api\/users\"  + contactId"}},{"result":{"nanos":554291499,"millis":554.291499,"status":"passed"},"step":{"line":9,"prefix":"When","index":1,"text":"method get"},"stepLog":"09:42:37.035 request:\n2 > GET https:\/\/reqres.in\/api\/users845\n2 > Host: reqres.in\n2 > Connection: Keep-Alive\n2 > User-Agent: Apache-HttpClient\/4.5.13 (Java\/1.8.0_202)\n2 > Accept-Encoding: gzip,deflate\n\n\n09:42:37.579 response time in milliseconds: 544\n2 < 200\n2 < Date: Sun, 19 May 2024 14:42:37 GMT\n2 < Content-Type: application\/json; charset=utf-8\n2 < Transfer-Encoding: chunked\n2 < Connection: keep-alive\n2 < Report-To: {\"group\":\"heroku-nel\",\"max_age\":3600,\"endpoints\":[{\"url\":\"https:\/\/nel.heroku.com\/reports?ts=1716129757&sid=c4c9725f-1ab0-44d8-820f-430df2718e11&s=Mb8Rx1JopGO0QAGLeTA47mtUwQ1Za2%2F%2BDgFckKzgGqs%3D\"}]}\n2 < Reporting-Endpoints: heroku-nel=https:\/\/nel.heroku.com\/reports?ts=1716129757&sid=c4c9725f-1ab0-44d8-820f-430df2718e11&s=Mb8Rx1JopGO0QAGLeTA47mtUwQ1Za2%2F%2BDgFckKzgGqs%3D\n2 < Nel: {\"report_to\":\"heroku-nel\",\"max_age\":3600,\"success_fraction\":0.005,\"failure_fraction\":0.05,\"response_headers\":[\"Via\"]}\n2 < X-Powered-By: Express\n2 < Access-Control-Allow-Origin: *\n2 < Etag: W\/\"2c1-N6Rqerxquq2kgQhL51EiSg4x0R8\"\n2 < Via: 1.1 vegur\n2 < Cache-Control: max-age=14400\n2 < CF-Cache-Status: MISS\n2 < Vary: Accept-Encoding\n2 < Server: cloudflare\n2 < CF-RAY: 8864dac86e8b31d2-MIA\n{\"page\":1,\"per_page\":6,\"total\":12,\"total_pages\":2,\"data\":[{\"id\":1,\"name\":\"cerulean\",\"year\":2000,\"color\":\"#98B2D1\",\"pantone_value\":\"15-4020\"},{\"id\":2,\"name\":\"fuchsia rose\",\"year\":2001,\"color\":\"#C74375\",\"pantone_value\":\"17-2031\"},{\"id\":3,\"name\":\"true red\",\"year\":2002,\"color\":\"#BF1932\",\"pantone_value\":\"19-1664\"},{\"id\":4,\"name\":\"aqua sky\",\"year\":2003,\"color\":\"#7BC4C4\",\"pantone_value\":\"14-4811\"},{\"id\":5,\"name\":\"tigerlily\",\"year\":2004,\"color\":\"#E2583E\",\"pantone_value\":\"17-1456\"},{\"id\":6,\"name\":\"blue turquoise\",\"year\":2005,\"color\":\"#53B0AE\",\"pantone_value\":\"15-5217\"}],\"support\":{\"url\":\"https:\/\/reqres.in\/#support-heading\",\"text\":\"To keep ReqRes free, contributions towards server costs are appreciated!\"}}\n\n"},{"result":{"nanos":15200,"millis":0.0152,"status":"passed"},"step":{"line":10,"prefix":"Then","index":2,"text":"status 200"}},{"result":{"nanos":2936900,"errorMessage":"match failed: EQUALS\n  $ | actual path does not exist (STRING:STRING)\n  '#notpresent'\n  '845'\n\nsrc\/test\/java\/reqresIn\/get\/reqres-in-get.feature:12","millis":2.9369,"status":"failed"},"step":{"comments":["##And match $ == responseSuccessful"],"line":12,"prefix":"And","index":3,"text":"match response.data.id == contactId"},"stepLog":"09:42:37.579 src\/test\/java\/reqresIn\/get\/reqres-in-get.feature:12\nAnd match response.data.id == contactId\nmatch failed: EQUALS\n  $ | actual path does not exist (STRING:STRING)\n  '#notpresent'\n  '845'\n\nsrc\/test\/java\/reqresIn\/get\/reqres-in-get.feature:12\n"},{"result":{"nanos":0,"millis":0.0,"status":"skipped"},"step":{"line":13,"prefix":"And","index":4,"text":"match response.data.first_name == 'vic'"}},{"result":{"nanos":0,"millis":0.0,"status":"skipped"},"step":{"line":14,"prefix":"And","index":5,"text":"match response.data.last_name == 'Doe'"}},{"result":{"nanos":0,"millis":0.0,"status":"skipped"},"step":{"line":15,"prefix":"And","index":6,"text":"match response.data.email == 'vic.doe@reqres.in'"}}],"line":6,"description":"","durationMillis":3208.4893,"failed":true,"error":"match failed: EQUALS\n  $ | actual path does not exist (STRING:STRING)\n  '#notpresent'\n  '845'\n\nsrc\/test\/java\/reqresIn\/get\/reqres-in-get.feature:12","executorName":"main","name":"Get a user","startTime":1716129753803,"refId":"[1:6]","endTime":1716129757579,"exampleIndex":-1}],"callDepth":0,"name":"Get user on regres","description":"","resultDate":"2024-05-19 09:42:37 AM","durationMillis":3208.4893,"passedCount":0}