{"failedCount":1,"prefixedPath":"src\/test\/java\/reqresIn\/Getall\/getall.feature","packageQualifiedName":"src.test.java.reqresIn.Getall.getall","loopIndex":-1,"relativePath":"src\/test\/java\/reqresIn\/Getall\/getall.feature","scenarioResults":[{"sectionIndex":0,"stepResults":[{"result":{"nanos":1618800,"millis":1.6188,"status":"passed"},"step":{"background":true,"line":4,"prefix":"*","index":0,"text":"url 'https:\/\/reqres.in\/api'"}},{"result":{"nanos":1424773600,"millis":1424.7736,"status":"passed"},"step":{"line":7,"prefix":"*","index":0,"text":"call read(\"..\/post\/regres-in-post.feature@Create\")"},"callResults":[{"failedCount":0,"prefixedPath":"src\/test\/java\/reqresIn\/Getall\/..\/post\/regres-in-post.feature","packageQualifiedName":"src.test.java.reqresIn.Getall.post.regres-in-post","loopIndex":-1,"relativePath":"src\/test\/java\/reqresIn\/Getall\/..\/post\/regres-in-post.feature","scenarioResults":[{"sectionIndex":0,"stepResults":[{"result":{"nanos":519300,"millis":0.5193,"status":"passed"},"step":{"line":4,"prefix":"Given","index":0,"text":"url  \"https:\/\/reqres.in\/api\/users\""}},{"result":{"nanos":59693900,"millis":59.6939,"status":"passed"},"step":{"line":5,"prefix":"And","index":1,"text":"request {\"email\": \"vic@gmail.com\"}"}},{"result":{"nanos":1337214100,"millis":1337.2141,"status":"passed"},"step":{"line":6,"prefix":"When","index":2,"text":"method post"},"stepLog":"19:42:07.077 request:\n1 > POST https:\/\/reqres.in\/api\/users\n1 > Content-Type: application\/json; charset=UTF-8\n1 > Content-Length: 25\n1 > Host: reqres.in\n1 > Connection: Keep-Alive\n1 > User-Agent: Apache-HttpClient\/4.5.13 (Java\/1.8.0_202)\n1 > Accept-Encoding: gzip,deflate\n{\"email\":\"vic@gmail.com\"}\n\n19:42:07.767 response time in milliseconds: 682\n1 < 201\n1 < Date: Sun, 19 May 2024 00:42:08 GMT\n1 < Content-Type: application\/json; charset=utf-8\n1 < Content-Length: 75\n1 < Connection: keep-alive\n1 < Report-To: {\"group\":\"heroku-nel\",\"max_age\":3600,\"endpoints\":[{\"url\":\"https:\/\/nel.heroku.com\/reports?ts=1716079328&sid=c4c9725f-1ab0-44d8-820f-430df2718e11&s=06LQKeKHvJD5zMjz%2B5QT05TJWizhliPitpJcFzW3ej4%3D\"}]}\n1 < Reporting-Endpoints: heroku-nel=https:\/\/nel.heroku.com\/reports?ts=1716079328&sid=c4c9725f-1ab0-44d8-820f-430df2718e11&s=06LQKeKHvJD5zMjz%2B5QT05TJWizhliPitpJcFzW3ej4%3D\n1 < Nel: {\"report_to\":\"heroku-nel\",\"max_age\":3600,\"success_fraction\":0.005,\"failure_fraction\":0.05,\"response_headers\":[\"Via\"]}\n1 < X-Powered-By: Express\n1 < Access-Control-Allow-Origin: *\n1 < Etag: W\/\"4b-aVte65CV+cbx0tOouz75C7cxrAQ\"\n1 < Via: 1.1 vegur\n1 < CF-Cache-Status: DYNAMIC\n1 < Server: cloudflare\n1 < CF-RAY: 88600b98991109d2-MIA\n{\"email\":\"vic@gmail.com\",\"id\":\"758\",\"createdAt\":\"2024-05-19T00:42:08.281Z\"}\n\n"},{"result":{"nanos":17800,"millis":0.0178,"status":"passed"},"step":{"line":7,"prefix":"Then","index":3,"text":"status 201"}},{"result":{"nanos":5627700,"millis":5.6277,"status":"passed"},"step":{"line":8,"prefix":"And","index":4,"text":"def contactId = $.id"}}],"line":3,"description":"","durationMillis":1403.0728,"failed":false,"tags":["Create"],"executorName":"main","name":"","startTime":1716079326369,"refId":"[1:3]","endTime":1716079327769,"exampleIndex":-1}],"callDepth":1,"name":"Reusable scenarios for post a user","description":"","resultDate":"2024-05-18 07:42:08 PM","durationMillis":1403.0728,"passedCount":1}]},{"result":{"nanos":490400,"millis":0.4904,"status":"passed"},"step":{"line":8,"prefix":"Given","index":1,"text":"path 'users'"}},{"result":{"nanos":730106400,"millis":730.1064,"status":"passed"},"step":{"line":9,"prefix":"When","index":2,"text":"method get"},"stepLog":"19:42:07.777 request:\n2 > GET https:\/\/reqres.in\/api\/users\n2 > Host: reqres.in\n2 > Connection: Keep-Alive\n2 > User-Agent: Apache-HttpClient\/4.5.13 (Java\/1.8.0_202)\n2 > Accept-Encoding: gzip,deflate\n\n\n19:42:08.495 response time in milliseconds: 718\n2 < 200\n2 < Date: Sun, 19 May 2024 00:42:09 GMT\n2 < Content-Type: application\/json; charset=utf-8\n2 < Transfer-Encoding: chunked\n2 < Connection: keep-alive\n2 < Report-To: {\"group\":\"heroku-nel\",\"max_age\":3600,\"endpoints\":[{\"url\":\"https:\/\/nel.heroku.com\/reports?ts=1716008367&sid=c4c9725f-1ab0-44d8-820f-430df2718e11&s=uBz%2BPDHMKlsM5wEG1jq0rwJUrChPyeD25pGbD9K47NA%3D\"}]}\n2 < Reporting-Endpoints: heroku-nel=https:\/\/nel.heroku.com\/reports?ts=1716008367&sid=c4c9725f-1ab0-44d8-820f-430df2718e11&s=uBz%2BPDHMKlsM5wEG1jq0rwJUrChPyeD25pGbD9K47NA%3D\n2 < Nel: {\"report_to\":\"heroku-nel\",\"max_age\":3600,\"success_fraction\":0.005,\"failure_fraction\":0.05,\"response_headers\":[\"Via\"]}\n2 < X-Powered-By: Express\n2 < Access-Control-Allow-Origin: *\n2 < Etag: W\/\"3e4-2RLXvr5wTg9YQ6aH95CkYoFNuO8\"\n2 < Via: 1.1 vegur\n2 < Cache-Control: max-age=14400\n2 < CF-Cache-Status: HIT\n2 < Age: 3133\n2 < Vary: Accept-Encoding\n2 < Server: cloudflare\n2 < CF-RAY: 88600b9eabe23dcd-MIA\n{\"page\":1,\"per_page\":6,\"total\":12,\"total_pages\":2,\"data\":[{\"id\":1,\"email\":\"george.bluth@reqres.in\",\"first_name\":\"George\",\"last_name\":\"Bluth\",\"avatar\":\"https:\/\/reqres.in\/img\/faces\/1-image.jpg\"},{\"id\":2,\"email\":\"janet.weaver@reqres.in\",\"first_name\":\"Janet\",\"last_name\":\"Weaver\",\"avatar\":\"https:\/\/reqres.in\/img\/faces\/2-image.jpg\"},{\"id\":3,\"email\":\"emma.wong@reqres.in\",\"first_name\":\"Emma\",\"last_name\":\"Wong\",\"avatar\":\"https:\/\/reqres.in\/img\/faces\/3-image.jpg\"},{\"id\":4,\"email\":\"eve.holt@reqres.in\",\"first_name\":\"Eve\",\"last_name\":\"Holt\",\"avatar\":\"https:\/\/reqres.in\/img\/faces\/4-image.jpg\"},{\"id\":5,\"email\":\"charles.morris@reqres.in\",\"first_name\":\"Charles\",\"last_name\":\"Morris\",\"avatar\":\"https:\/\/reqres.in\/img\/faces\/5-image.jpg\"},{\"id\":6,\"email\":\"tracey.ramos@reqres.in\",\"first_name\":\"Tracey\",\"last_name\":\"Ramos\",\"avatar\":\"https:\/\/reqres.in\/img\/faces\/6-image.jpg\"}],\"support\":{\"url\":\"https:\/\/reqres.in\/#support-heading\",\"text\":\"To keep ReqRes free, contributions towards server costs are appreciated!\"}}\n\n"},{"result":{"nanos":7700,"millis":0.0077,"status":"passed"},"step":{"line":10,"prefix":"Then","index":3,"text":"status 200"}},{"result":{"nanos":94245000,"errorMessage":"js failed:\n>>>>\n01: ContactId\n<<<<\norg.graalvm.polyglot.PolyglotException: ReferenceError: \"ContactId\" is not defined\n- <js>.:program(Unnamed:1)\n\nsrc\/test\/java\/reqresIn\/Getall\/getall.feature:11","millis":94.245,"status":"failed"},"step":{"line":11,"prefix":"And","index":4,"text":"match response.data[*].id != ContactId"},"stepLog":"19:42:08.596 src\/test\/java\/reqresIn\/Getall\/getall.feature:11\nAnd match response.data[*].id != ContactId\njs failed:\n>>>>\n01: ContactId\n<<<<\norg.graalvm.polyglot.PolyglotException: ReferenceError: \"ContactId\" is not defined\n- <js>.:program(Unnamed:1)\n\nsrc\/test\/java\/reqresIn\/Getall\/getall.feature:11\n"}],"line":6,"description":"","durationMillis":2251.2419,"failed":true,"error":"js failed:\n>>>>\n01: ContactId\n<<<<\norg.graalvm.polyglot.PolyglotException: ReferenceError: \"ContactId\" is not defined\n- <js>.:program(Unnamed:1)\n\nsrc\/test\/java\/reqresIn\/Getall\/getall.feature:11","executorName":"main","name":"Get the complete list of users and verify the deleted user is not present","startTime":1716079326099,"refId":"[1:6]","endTime":1716079328596,"exampleIndex":-1}],"callDepth":0,"name":"User management in Reqres API","description":"","resultDate":"2024-05-18 07:42:08 PM","durationMillis":2251.2419,"passedCount":0}