{"failedCount":0,"prefixedPath":"src\/test\/java\/reqresIn\/get\/reqres-in-get.feature","packageQualifiedName":"src.test.java.reqresIn.get.reqres-in-get","loopIndex":-1,"relativePath":"src\/test\/java\/reqresIn\/get\/reqres-in-get.feature","scenarioResults":[{"sectionIndex":0,"stepResults":[{"result":{"nanos":83644500,"millis":83.6445,"status":"passed"},"step":{"background":true,"line":4,"prefix":"*","index":0,"text":"def responseSuccessful = read(\"successful-response-get.json\")"}},{"result":{"nanos":1339711000,"millis":1339.711,"status":"passed"},"step":{"background":true,"line":5,"prefix":"*","index":1,"text":"call read(\"..\/post\/regres-in-post.feature@Create\")"},"callResults":[{"failedCount":0,"prefixedPath":"src\/test\/java\/reqresIn\/get\/..\/post\/regres-in-post.feature","packageQualifiedName":"src.test.java.reqresIn.get.post.regres-in-post","loopIndex":-1,"relativePath":"src\/test\/java\/reqresIn\/get\/..\/post\/regres-in-post.feature","scenarioResults":[{"sectionIndex":0,"stepResults":[{"result":{"nanos":1186000,"millis":1.186,"status":"passed"},"step":{"background":true,"line":5,"prefix":"*","index":0,"text":"url \"https:\/\/reqres.in\""}},{"result":{"nanos":446300,"millis":0.4463,"status":"passed"},"step":{"background":true,"line":6,"prefix":"*","index":1,"text":"path \"\/api\/users\""}},{"result":{"nanos":299399,"millis":0.299399,"status":"passed"},"step":{"background":true,"line":7,"prefix":"*","index":2,"text":"def var = {\"name\": \"vic\", \"job\":\"qa\"}"}},{"result":{"nanos":1672801,"millis":1.672801,"status":"passed"},"step":{"line":10,"prefix":"Given","index":0,"text":"request var"}},{"result":{"nanos":1316364200,"millis":1316.3642,"status":"passed"},"step":{"line":11,"prefix":"When","index":1,"text":"method post"},"stepLog":"08:46:21.961 request:\n1 > POST https:\/\/reqres.in\/api\/users\n1 > Content-Type: application\/json; charset=UTF-8\n1 > Content-Length: 25\n1 > Host: reqres.in\n1 > Connection: Keep-Alive\n1 > User-Agent: Apache-HttpClient\/4.5.13 (Java\/1.8.0_202)\n1 > Accept-Encoding: gzip,deflate\n{\"name\":\"vic\",\"job\":\"qa\"}\n\n08:46:22.630 response time in milliseconds: 669\n1 < 201\n1 < Date: Sun, 19 May 2024 13:46:22 GMT\n1 < Content-Type: application\/json; charset=utf-8\n1 < Content-Length: 75\n1 < Connection: keep-alive\n1 < Report-To: {\"group\":\"heroku-nel\",\"max_age\":3600,\"endpoints\":[{\"url\":\"https:\/\/nel.heroku.com\/reports?ts=1716126382&sid=c4c9725f-1ab0-44d8-820f-430df2718e11&s=XRpFKLfI%2FMFhvCJNqIysYJK6kEcw3nxJgJoUAh1q4z4%3D\"}]}\n1 < Reporting-Endpoints: heroku-nel=https:\/\/nel.heroku.com\/reports?ts=1716126382&sid=c4c9725f-1ab0-44d8-820f-430df2718e11&s=XRpFKLfI%2FMFhvCJNqIysYJK6kEcw3nxJgJoUAh1q4z4%3D\n1 < Nel: {\"report_to\":\"heroku-nel\",\"max_age\":3600,\"success_fraction\":0.005,\"failure_fraction\":0.05,\"response_headers\":[\"Via\"]}\n1 < X-Powered-By: Express\n1 < Access-Control-Allow-Origin: *\n1 < Etag: W\/\"4b-RRQAwBMsRUxv1OdzctEidHowzb4\"\n1 < Via: 1.1 vegur\n1 < CF-Cache-Status: DYNAMIC\n1 < Server: cloudflare\n1 < CF-RAY: 88648862eefdd9b5-MIA\n{\"name\":\"vic\",\"job\":\"qa\",\"id\":\"622\",\"createdAt\":\"2024-05-19T13:46:22.727Z\"}\n\n"},{"result":{"nanos":12399,"millis":0.012399,"status":"passed"},"step":{"line":12,"prefix":"Then","index":2,"text":"status 201"}},{"result":{"nanos":1433400,"millis":1.4334,"status":"passed"},"step":{"line":13,"prefix":"And","index":3,"text":"def contactId = $.id"}}],"line":9,"description":"","durationMillis":1321.414499,"failed":false,"tags":["Create","ignore"],"executorName":"main","name":"Post a user","startTime":1716126381320,"refId":"[1:9]","endTime":1716126382630,"exampleIndex":-1}],"callDepth":1,"name":"Reusable scenarios for post a user","description":"","resultDate":"2024-05-19 08:46:23 AM","durationMillis":1321.414499,"passedCount":1}]},{"result":{"nanos":92873900,"millis":92.8739,"status":"passed"},"step":{"line":8,"prefix":"Given","index":0,"text":"url \"https:\/\/reqres.in\" + \"\/api\/users\" + contactId"}},{"result":{"nanos":551000101,"millis":551.000101,"status":"passed"},"step":{"line":9,"prefix":"When","index":1,"text":"method get"},"stepLog":"08:46:22.730 request:\n2 > GET https:\/\/reqres.in\/api\/users622\n2 > Host: reqres.in\n2 > Connection: Keep-Alive\n2 > User-Agent: Apache-HttpClient\/4.5.13 (Java\/1.8.0_202)\n2 > Accept-Encoding: gzip,deflate\n\n\n08:46:23.281 response time in milliseconds: 551\n2 < 200\n2 < Date: Sun, 19 May 2024 13:46:23 GMT\n2 < Content-Type: application\/json; charset=utf-8\n2 < Transfer-Encoding: chunked\n2 < Connection: keep-alive\n2 < Report-To: {\"group\":\"heroku-nel\",\"max_age\":3600,\"endpoints\":[{\"url\":\"https:\/\/nel.heroku.com\/reports?ts=1716126383&sid=c4c9725f-1ab0-44d8-820f-430df2718e11&s=%2FOi69ytKFKU%2FmA6Fg%2BStNYqpL%2FOyo9Ah6KgDWH6itKI%3D\"}]}\n2 < Reporting-Endpoints: heroku-nel=https:\/\/nel.heroku.com\/reports?ts=1716126383&sid=c4c9725f-1ab0-44d8-820f-430df2718e11&s=%2FOi69ytKFKU%2FmA6Fg%2BStNYqpL%2FOyo9Ah6KgDWH6itKI%3D\n2 < Nel: {\"report_to\":\"heroku-nel\",\"max_age\":3600,\"success_fraction\":0.005,\"failure_fraction\":0.05,\"response_headers\":[\"Via\"]}\n2 < X-Powered-By: Express\n2 < Access-Control-Allow-Origin: *\n2 < Etag: W\/\"2c1-N6Rqerxquq2kgQhL51EiSg4x0R8\"\n2 < Via: 1.1 vegur\n2 < Cache-Control: max-age=14400\n2 < CF-Cache-Status: MISS\n2 < Vary: Accept-Encoding\n2 < Server: cloudflare\n2 < CF-RAY: 88648866fbc37486-MIA\n{\"page\":1,\"per_page\":6,\"total\":12,\"total_pages\":2,\"data\":[{\"id\":1,\"name\":\"cerulean\",\"year\":2000,\"color\":\"#98B2D1\",\"pantone_value\":\"15-4020\"},{\"id\":2,\"name\":\"fuchsia rose\",\"year\":2001,\"color\":\"#C74375\",\"pantone_value\":\"17-2031\"},{\"id\":3,\"name\":\"true red\",\"year\":2002,\"color\":\"#BF1932\",\"pantone_value\":\"19-1664\"},{\"id\":4,\"name\":\"aqua sky\",\"year\":2003,\"color\":\"#7BC4C4\",\"pantone_value\":\"14-4811\"},{\"id\":5,\"name\":\"tigerlily\",\"year\":2004,\"color\":\"#E2583E\",\"pantone_value\":\"17-1456\"},{\"id\":6,\"name\":\"blue turquoise\",\"year\":2005,\"color\":\"#53B0AE\",\"pantone_value\":\"15-5217\"}],\"support\":{\"url\":\"https:\/\/reqres.in\/#support-heading\",\"text\":\"To keep ReqRes free, contributions towards server costs are appreciated!\"}}\n\n"},{"result":{"nanos":7900,"millis":0.0079,"status":"passed"},"step":{"line":10,"prefix":"Then","index":2,"text":"status 200"}}],"executorName":"main","line":6,"name":"Get a user","description":"","durationMillis":2067.237401,"startTime":1716126380936,"failed":false,"refId":"[1:6]","endTime":1716126383289,"exampleIndex":-1}],"callDepth":0,"name":"Get user on regres","description":"","resultDate":"2024-05-19 08:46:23 AM","durationMillis":2067.237401,"passedCount":1}