{"failedCount":1,"prefixedPath":"src\/test\/java\/reqresIn\/get\/reqres-in-get.feature","packageQualifiedName":"src.test.java.reqresIn.get.reqres-in-get","loopIndex":-1,"relativePath":"src\/test\/java\/reqresIn\/get\/reqres-in-get.feature","scenarioResults":[{"sectionIndex":0,"stepResults":[{"result":{"nanos":195010700,"millis":195.0107,"status":"passed"},"step":{"background":true,"line":4,"prefix":"*","index":0,"text":"def responseSuccessful = read(\"successful-response-get.json\")"}},{"result":{"nanos":2443392000,"millis":2443.392,"status":"passed"},"step":{"background":true,"line":5,"prefix":"*","index":1,"text":"call read(\"..\/post\/regres-in-post.feature@Create\")"},"callResults":[{"failedCount":0,"prefixedPath":"src\/test\/java\/reqresIn\/get\/..\/post\/regres-in-post.feature","packageQualifiedName":"src.test.java.reqresIn.get.post.regres-in-post","loopIndex":-1,"relativePath":"src\/test\/java\/reqresIn\/get\/..\/post\/regres-in-post.feature","scenarioResults":[{"sectionIndex":0,"stepResults":[{"result":{"nanos":2554801,"millis":2.554801,"status":"passed"},"step":{"background":true,"line":5,"prefix":"*","index":0,"text":"url \"https:\/\/reqres.in\""}},{"result":{"nanos":1049900,"millis":1.0499,"status":"passed"},"step":{"background":true,"line":6,"prefix":"*","index":1,"text":"path \"\/api\/users\/\""}},{"result":{"nanos":668099,"millis":0.668099,"status":"passed"},"step":{"background":true,"line":7,"prefix":"*","index":2,"text":"def var = {\"name\": \"vic\", \"job\":\"qa\"}"}},{"result":{"nanos":3658300,"millis":3.6583,"status":"passed"},"step":{"line":10,"prefix":"Given","index":0,"text":"request var"}},{"result":{"nanos":2377442600,"millis":2377.4426,"status":"passed"},"step":{"line":11,"prefix":"When","index":1,"text":"method post"},"stepLog":"10:08:09.662 request:\n1 > POST https:\/\/reqres.in\/api\/users\n1 > Content-Type: application\/json; charset=UTF-8\n1 > Content-Length: 25\n1 > Host: reqres.in\n1 > Connection: Keep-Alive\n1 > User-Agent: Apache-HttpClient\/4.5.13 (Java\/1.8.0_202)\n1 > Accept-Encoding: gzip,deflate\n{\"name\":\"vic\",\"job\":\"qa\"}\n\n10:08:10.578 response time in milliseconds: 916\n1 < 201\n1 < Date: Sun, 19 May 2024 15:08:10 GMT\n1 < Content-Type: application\/json; charset=utf-8\n1 < Content-Length: 75\n1 < Connection: keep-alive\n1 < Report-To: {\"group\":\"heroku-nel\",\"max_age\":3600,\"endpoints\":[{\"url\":\"https:\/\/nel.heroku.com\/reports?ts=1716131290&sid=c4c9725f-1ab0-44d8-820f-430df2718e11&s=%2BsRRb%2FIwbYXHr66at8HycgtRiqv86Yc3G2mhWuPESjc%3D\"}]}\n1 < Reporting-Endpoints: heroku-nel=https:\/\/nel.heroku.com\/reports?ts=1716131290&sid=c4c9725f-1ab0-44d8-820f-430df2718e11&s=%2BsRRb%2FIwbYXHr66at8HycgtRiqv86Yc3G2mhWuPESjc%3D\n1 < Nel: {\"report_to\":\"heroku-nel\",\"max_age\":3600,\"success_fraction\":0.005,\"failure_fraction\":0.05,\"response_headers\":[\"Via\"]}\n1 < X-Powered-By: Express\n1 < Access-Control-Allow-Origin: *\n1 < Etag: W\/\"4b-ljcB2pAGV\/wQR3JRKxdvk\/L6S9E\"\n1 < Via: 1.1 vegur\n1 < CF-Cache-Status: DYNAMIC\n1 < Server: cloudflare\n1 < CF-RAY: 8865003528e0a4d4-MIA\n{\"name\":\"vic\",\"job\":\"qa\",\"id\":\"920\",\"createdAt\":\"2024-05-19T15:08:10.616Z\"}\n\n"},{"result":{"nanos":22500,"millis":0.0225,"status":"passed"},"step":{"line":12,"prefix":"Then","index":2,"text":"status 201"}},{"result":{"nanos":15814000,"millis":15.814,"status":"passed"},"step":{"line":13,"prefix":"And","index":3,"text":"match response.name == 'vic'"}},{"result":{"nanos":1130400,"millis":1.1304,"status":"passed"},"step":{"line":14,"prefix":"And","index":4,"text":"match response.job == 'qa'"}},{"result":{"nanos":1173400,"millis":1.1734,"status":"passed"},"step":{"line":15,"prefix":"And","index":5,"text":"def contactId = response.id"}}],"line":9,"description":"","durationMillis":2403.514,"failed":false,"tags":["Create","ignore"],"executorName":"main","name":"Post a user","startTime":1716131288204,"refId":"[1:9]","endTime":1716131290609,"exampleIndex":-1}],"callDepth":1,"name":"Reusable scenarios for post a user","description":"","resultDate":"2024-05-19 10:08:11 AM","durationMillis":2403.514,"passedCount":1}]},{"result":{"nanos":185113000,"millis":185.113,"status":"passed"},"step":{"line":8,"prefix":"Given","index":0,"text":"url \"https:\/\/reqres.in\" + \"\/api\/users\"  + \"2\""}},{"result":{"nanos":365511200,"millis":365.5112,"status":"passed"},"step":{"line":9,"prefix":"When","index":1,"text":"method get"},"stepLog":"10:08:10.800 request:\n2 > GET https:\/\/reqres.in\/api\/users2\n2 > Host: reqres.in\n2 > Connection: Keep-Alive\n2 > User-Agent: Apache-HttpClient\/4.5.13 (Java\/1.8.0_202)\n2 > Accept-Encoding: gzip,deflate\n\n\n10:08:11.155 response time in milliseconds: 355\n2 < 200\n2 < Date: Sun, 19 May 2024 15:08:11 GMT\n2 < Content-Type: application\/json; charset=utf-8\n2 < Transfer-Encoding: chunked\n2 < Connection: keep-alive\n2 < Report-To: {\"group\":\"heroku-nel\",\"max_age\":3600,\"endpoints\":[{\"url\":\"https:\/\/nel.heroku.com\/reports?ts=1716063626&sid=c4c9725f-1ab0-44d8-820f-430df2718e11&s=BgIEG0eTJ5wn1l6S7qWgUztdss6eGyHP9HA43MXzQDw%3D\"}]}\n2 < Reporting-Endpoints: heroku-nel=https:\/\/nel.heroku.com\/reports?ts=1716063626&sid=c4c9725f-1ab0-44d8-820f-430df2718e11&s=BgIEG0eTJ5wn1l6S7qWgUztdss6eGyHP9HA43MXzQDw%3D\n2 < Nel: {\"report_to\":\"heroku-nel\",\"max_age\":3600,\"success_fraction\":0.005,\"failure_fraction\":0.05,\"response_headers\":[\"Via\"]}\n2 < X-Powered-By: Express\n2 < Access-Control-Allow-Origin: *\n2 < Etag: W\/\"2c1-N6Rqerxquq2kgQhL51EiSg4x0R8\"\n2 < Via: 1.1 vegur\n2 < Cache-Control: max-age=14400\n2 < CF-Cache-Status: HIT\n2 < Age: 93\n2 < Vary: Accept-Encoding\n2 < Server: cloudflare\n2 < CF-RAY: 8865003acddc8758-MIA\n{\"page\":1,\"per_page\":6,\"total\":12,\"total_pages\":2,\"data\":[{\"id\":1,\"name\":\"cerulean\",\"year\":2000,\"color\":\"#98B2D1\",\"pantone_value\":\"15-4020\"},{\"id\":2,\"name\":\"fuchsia rose\",\"year\":2001,\"color\":\"#C74375\",\"pantone_value\":\"17-2031\"},{\"id\":3,\"name\":\"true red\",\"year\":2002,\"color\":\"#BF1932\",\"pantone_value\":\"19-1664\"},{\"id\":4,\"name\":\"aqua sky\",\"year\":2003,\"color\":\"#7BC4C4\",\"pantone_value\":\"14-4811\"},{\"id\":5,\"name\":\"tigerlily\",\"year\":2004,\"color\":\"#E2583E\",\"pantone_value\":\"17-1456\"},{\"id\":6,\"name\":\"blue turquoise\",\"year\":2005,\"color\":\"#53B0AE\",\"pantone_value\":\"15-5217\"}],\"support\":{\"url\":\"https:\/\/reqres.in\/#support-heading\",\"text\":\"To keep ReqRes free, contributions towards server costs are appreciated!\"}}\n\n"},{"result":{"nanos":14701,"millis":0.014701,"status":"passed"},"step":{"line":10,"prefix":"Then","index":2,"text":"status 200"}},{"result":{"nanos":3374900,"errorMessage":"match failed: EQUALS\n  $ | actual path does not exist (STRING:STRING)\n  '#notpresent'\n  '920'\n\nsrc\/test\/java\/reqresIn\/get\/reqres-in-get.feature:12","millis":3.3749,"status":"failed"},"step":{"comments":["##And match $ == responseSuccessful"],"line":12,"prefix":"And","index":3,"text":"match response.data.id == contactId"},"stepLog":"10:08:11.165 src\/test\/java\/reqresIn\/get\/reqres-in-get.feature:12\nAnd match response.data.id == contactId\nmatch failed: EQUALS\n  $ | actual path does not exist (STRING:STRING)\n  '#notpresent'\n  '920'\n\nsrc\/test\/java\/reqresIn\/get\/reqres-in-get.feature:12\n"},{"result":{"nanos":0,"millis":0.0,"status":"skipped"},"step":{"line":13,"prefix":"And","index":4,"text":"match response.data.first_name == 'vic'"}},{"result":{"nanos":0,"millis":0.0,"status":"skipped"},"step":{"line":14,"prefix":"And","index":5,"text":"match response.data.last_name == 'Doe'"}},{"result":{"nanos":0,"millis":0.0,"status":"skipped"},"step":{"line":15,"prefix":"And","index":6,"text":"match response.data.email == 'vic.doe@reqres.in'"}}],"line":6,"description":"","durationMillis":3192.416501,"failed":true,"error":"match failed: EQUALS\n  $ | actual path does not exist (STRING:STRING)\n  '#notpresent'\n  '920'\n\nsrc\/test\/java\/reqresIn\/get\/reqres-in-get.feature:12","executorName":"main","name":"Get a user","startTime":1716131287445,"refId":"[1:6]","endTime":1716131291165,"exampleIndex":-1}],"callDepth":0,"name":"Get user on regres","description":"","resultDate":"2024-05-19 10:08:11 AM","durationMillis":3192.416501,"passedCount":0}