{"failedCount":1,"prefixedPath":"src\/test\/java\/reqresIn\/get\/reqres-in-get.feature","packageQualifiedName":"src.test.java.reqresIn.get.reqres-in-get","loopIndex":-1,"relativePath":"src\/test\/java\/reqresIn\/get\/reqres-in-get.feature","scenarioResults":[{"sectionIndex":0,"stepResults":[{"result":{"nanos":162281801,"millis":162.281801,"status":"passed"},"step":{"background":true,"line":4,"prefix":"*","index":0,"text":"def responseSuccessful = read(\"successful-response-get.json\")"}},{"result":{"nanos":2303101100,"millis":2303.1011,"status":"passed"},"step":{"background":true,"line":5,"prefix":"*","index":1,"text":"call read(\"..\/post\/regres-in-post.feature@Create\")"},"callResults":[{"failedCount":0,"prefixedPath":"src\/test\/java\/reqresIn\/get\/..\/post\/regres-in-post.feature","packageQualifiedName":"src.test.java.reqresIn.get.post.regres-in-post","loopIndex":-1,"relativePath":"src\/test\/java\/reqresIn\/get\/..\/post\/regres-in-post.feature","scenarioResults":[{"sectionIndex":0,"stepResults":[{"result":{"nanos":2087100,"millis":2.0871,"status":"passed"},"step":{"background":true,"line":5,"prefix":"*","index":0,"text":"url \"https:\/\/reqres.in\""}},{"result":{"nanos":816299,"millis":0.816299,"status":"passed"},"step":{"background":true,"line":6,"prefix":"*","index":1,"text":"path \"\/api\/users\""}},{"result":{"nanos":548799,"millis":0.548799,"status":"passed"},"step":{"background":true,"line":7,"prefix":"*","index":2,"text":"def var = {\"name\": \"vic\", \"job\":\"qa\"}"}},{"result":{"nanos":3403999,"millis":3.403999,"status":"passed"},"step":{"line":10,"prefix":"Given","index":0,"text":"request var"}},{"result":{"nanos":2244743200,"millis":2244.7432,"status":"passed"},"step":{"line":11,"prefix":"When","index":1,"text":"method post"},"stepLog":"09:42:02.951 request:\n1 > POST https:\/\/reqres.in\/api\/users\n1 > Content-Type: application\/json; charset=UTF-8\n1 > Content-Length: 25\n1 > Host: reqres.in\n1 > Connection: Keep-Alive\n1 > User-Agent: Apache-HttpClient\/4.5.13 (Java\/1.8.0_202)\n1 > Accept-Encoding: gzip,deflate\n{\"name\":\"vic\",\"job\":\"qa\"}\n\n09:42:03.792 response time in milliseconds: 836\n1 < 201\n1 < Date: Sun, 19 May 2024 14:42:03 GMT\n1 < Content-Type: application\/json; charset=utf-8\n1 < Content-Length: 75\n1 < Connection: keep-alive\n1 < Report-To: {\"group\":\"heroku-nel\",\"max_age\":3600,\"endpoints\":[{\"url\":\"https:\/\/nel.heroku.com\/reports?ts=1716129723&sid=c4c9725f-1ab0-44d8-820f-430df2718e11&s=vXc8%2BwBJnDH%2ByElkJ0JZQ1RoI817wdRV3fNwGzgNT98%3D\"}]}\n1 < Reporting-Endpoints: heroku-nel=https:\/\/nel.heroku.com\/reports?ts=1716129723&sid=c4c9725f-1ab0-44d8-820f-430df2718e11&s=vXc8%2BwBJnDH%2ByElkJ0JZQ1RoI817wdRV3fNwGzgNT98%3D\n1 < Nel: {\"report_to\":\"heroku-nel\",\"max_age\":3600,\"success_fraction\":0.005,\"failure_fraction\":0.05,\"response_headers\":[\"Via\"]}\n1 < X-Powered-By: Express\n1 < Access-Control-Allow-Origin: *\n1 < Etag: W\/\"4b-xYFUBuIuMe+4trrS31ZFbOCMwuQ\"\n1 < Via: 1.1 vegur\n1 < CF-Cache-Status: DYNAMIC\n1 < Server: cloudflare\n1 < CF-RAY: 8864d9f51966d9b9-MIA\n{\"name\":\"vic\",\"job\":\"qa\",\"id\":\"901\",\"createdAt\":\"2024-05-19T14:42:03.891Z\"}\n\n"},{"result":{"nanos":25501,"millis":0.025501,"status":"passed"},"step":{"line":12,"prefix":"Then","index":2,"text":"status 201"}},{"result":{"nanos":18529900,"millis":18.5299,"status":"passed"},"step":{"line":13,"prefix":"And","index":3,"text":"match response.name == 'vic'"}},{"result":{"nanos":1125800,"millis":1.1258,"status":"passed"},"step":{"line":14,"prefix":"And","index":4,"text":"match response.job == 'qa'"}},{"result":{"nanos":1080099,"millis":1.080099,"status":"passed"},"step":{"line":15,"prefix":"And","index":5,"text":"def contactId = response.id"}}],"line":9,"description":"","durationMillis":2272.360697,"failed":false,"tags":["Create","ignore"],"executorName":"main","name":"Post a user","startTime":1716129721539,"refId":"[1:9]","endTime":1716129723814,"exampleIndex":-1}],"callDepth":1,"name":"Reusable scenarios for post a user","description":"","resultDate":"2024-05-19 09:42:04 AM","durationMillis":2272.360697,"passedCount":1}]},{"result":{"nanos":190078200,"millis":190.0782,"status":"passed"},"step":{"line":8,"prefix":"Given","index":0,"text":"url \"https:\/\/reqres.in\" + \"\/api\/users\"  + contactId"}},{"result":{"nanos":796097600,"millis":796.0976,"status":"passed"},"step":{"line":9,"prefix":"When","index":1,"text":"method get"},"stepLog":"09:42:04.006 request:\n2 > GET https:\/\/reqres.in\/api\/users901\n2 > Host: reqres.in\n2 > Connection: Keep-Alive\n2 > User-Agent: Apache-HttpClient\/4.5.13 (Java\/1.8.0_202)\n2 > Accept-Encoding: gzip,deflate\n\n\n09:42:04.804 response time in milliseconds: 798\n2 < 200\n2 < Date: Sun, 19 May 2024 14:42:04 GMT\n2 < Content-Type: application\/json; charset=utf-8\n2 < Transfer-Encoding: chunked\n2 < Connection: keep-alive\n2 < Report-To: {\"group\":\"heroku-nel\",\"max_age\":3600,\"endpoints\":[{\"url\":\"https:\/\/nel.heroku.com\/reports?ts=1716129724&sid=c4c9725f-1ab0-44d8-820f-430df2718e11&s=n7oYUBP8wWQPIFRKYnOH84Gqe876irEBVB1EGRGmXN0%3D\"}]}\n2 < Reporting-Endpoints: heroku-nel=https:\/\/nel.heroku.com\/reports?ts=1716129724&sid=c4c9725f-1ab0-44d8-820f-430df2718e11&s=n7oYUBP8wWQPIFRKYnOH84Gqe876irEBVB1EGRGmXN0%3D\n2 < Nel: {\"report_to\":\"heroku-nel\",\"max_age\":3600,\"success_fraction\":0.005,\"failure_fraction\":0.05,\"response_headers\":[\"Via\"]}\n2 < X-Powered-By: Express\n2 < Access-Control-Allow-Origin: *\n2 < Etag: W\/\"2c1-N6Rqerxquq2kgQhL51EiSg4x0R8\"\n2 < Via: 1.1 vegur\n2 < Cache-Control: max-age=14400\n2 < CF-Cache-Status: MISS\n2 < Vary: Accept-Encoding\n2 < Server: cloudflare\n2 < CF-RAY: 8864d9fb68a6335f-MIA\n{\"page\":1,\"per_page\":6,\"total\":12,\"total_pages\":2,\"data\":[{\"id\":1,\"name\":\"cerulean\",\"year\":2000,\"color\":\"#98B2D1\",\"pantone_value\":\"15-4020\"},{\"id\":2,\"name\":\"fuchsia rose\",\"year\":2001,\"color\":\"#C74375\",\"pantone_value\":\"17-2031\"},{\"id\":3,\"name\":\"true red\",\"year\":2002,\"color\":\"#BF1932\",\"pantone_value\":\"19-1664\"},{\"id\":4,\"name\":\"aqua sky\",\"year\":2003,\"color\":\"#7BC4C4\",\"pantone_value\":\"14-4811\"},{\"id\":5,\"name\":\"tigerlily\",\"year\":2004,\"color\":\"#E2583E\",\"pantone_value\":\"17-1456\"},{\"id\":6,\"name\":\"blue turquoise\",\"year\":2005,\"color\":\"#53B0AE\",\"pantone_value\":\"15-5217\"}],\"support\":{\"url\":\"https:\/\/reqres.in\/#support-heading\",\"text\":\"To keep ReqRes free, contributions towards server costs are appreciated!\"}}\n\n"},{"result":{"nanos":16200,"millis":0.0162,"status":"passed"},"step":{"line":10,"prefix":"Then","index":2,"text":"status 200"}},{"result":{"nanos":32680100,"errorMessage":"js failed:\n>>>>\n01: name\n<<<<\norg.graalvm.polyglot.PolyglotException: ReferenceError: \"name\" is not defined\n- <js>.:program(Unnamed:1)\n\nsrc\/test\/java\/reqresIn\/get\/reqres-in-get.feature:12","millis":32.6801,"status":"failed"},"step":{"comments":["##And match $ == responseSuccessful"],"line":12,"prefix":"And","index":3,"text":"match $.name == name"},"stepLog":"09:42:04.835 src\/test\/java\/reqresIn\/get\/reqres-in-get.feature:12\nAnd match $.name == name\njs failed:\n>>>>\n01: name\n<<<<\norg.graalvm.polyglot.PolyglotException: ReferenceError: \"name\" is not defined\n- <js>.:program(Unnamed:1)\n\nsrc\/test\/java\/reqresIn\/get\/reqres-in-get.feature:12\n"},{"result":{"nanos":0,"millis":0.0,"status":"skipped"},"step":{"line":13,"prefix":"And","index":4,"text":"match response.data.id == contactId"}},{"result":{"nanos":0,"millis":0.0,"status":"skipped"},"step":{"line":14,"prefix":"And","index":5,"text":"match response.data.first_name == 'vic'"}},{"result":{"nanos":0,"millis":0.0,"status":"skipped"},"step":{"line":15,"prefix":"And","index":6,"text":"match response.data.last_name == 'Doe'"}},{"result":{"nanos":0,"millis":0.0,"status":"skipped"},"step":{"line":16,"prefix":"And","index":7,"text":"match response.data.email == 'vic.doe@reqres.in'"}}],"line":6,"description":"","durationMillis":3484.255001,"failed":true,"error":"js failed:\n>>>>\n01: name\n<<<<\norg.graalvm.polyglot.PolyglotException: ReferenceError: \"name\" is not defined\n- <js>.:program(Unnamed:1)\n\nsrc\/test\/java\/reqresIn\/get\/reqres-in-get.feature:12","executorName":"main","name":"Get a user","startTime":1716129720733,"refId":"[1:6]","endTime":1716129724835,"exampleIndex":-1}],"callDepth":0,"name":"Get user on regres","description":"","resultDate":"2024-05-19 09:42:04 AM","durationMillis":3484.255001,"passedCount":0}