{"failedCount":1,"prefixedPath":"src\/test\/java\/reqresIn\/get\/reqres-in-get.feature","packageQualifiedName":"src.test.java.reqresIn.get.reqres-in-get","loopIndex":-1,"relativePath":"src\/test\/java\/reqresIn\/get\/reqres-in-get.feature","scenarioResults":[{"sectionIndex":0,"stepResults":[{"result":{"nanos":144925699,"millis":144.925699,"status":"passed"},"step":{"background":true,"line":4,"prefix":"*","index":0,"text":"def responseSuccessful = read(\"successful-response-get.json\")"}},{"result":{"nanos":2256030200,"millis":2256.0302,"status":"passed"},"step":{"background":true,"line":5,"prefix":"*","index":1,"text":"call read(\"..\/post\/regres-in-post.feature@Create\")"},"callResults":[{"failedCount":0,"prefixedPath":"src\/test\/java\/reqresIn\/get\/..\/post\/regres-in-post.feature","packageQualifiedName":"src.test.java.reqresIn.get.post.regres-in-post","loopIndex":-1,"relativePath":"src\/test\/java\/reqresIn\/get\/..\/post\/regres-in-post.feature","scenarioResults":[{"sectionIndex":0,"stepResults":[{"result":{"nanos":2199000,"millis":2.199,"status":"passed"},"step":{"background":true,"line":5,"prefix":"*","index":0,"text":"url \"https:\/\/reqres.in\""}},{"result":{"nanos":836100,"millis":0.8361,"status":"passed"},"step":{"background":true,"line":6,"prefix":"*","index":1,"text":"path \"\/api\/users\""}},{"result":{"nanos":715400,"millis":0.7154,"status":"passed"},"step":{"background":true,"line":7,"prefix":"*","index":2,"text":"def var = {\"name\": \"vic\", \"job\":\"qa\"}"}},{"result":{"nanos":3243799,"millis":3.243799,"status":"passed"},"step":{"line":10,"prefix":"Given","index":0,"text":"request var"}},{"result":{"nanos":2212676700,"millis":2212.6767,"status":"passed"},"step":{"line":11,"prefix":"When","index":1,"text":"method post"},"stepLog":"09:13:11.715 request:\n1 > POST https:\/\/reqres.in\/api\/users\n1 > Content-Type: application\/json; charset=UTF-8\n1 > Content-Length: 25\n1 > Host: reqres.in\n1 > Connection: Keep-Alive\n1 > User-Agent: Apache-HttpClient\/4.5.13 (Java\/1.8.0_202)\n1 > Accept-Encoding: gzip,deflate\n{\"name\":\"vic\",\"job\":\"qa\"}\n\n09:13:12.595 response time in milliseconds: 865\n1 < 201\n1 < Date: Sun, 19 May 2024 14:13:12 GMT\n1 < Content-Type: application\/json; charset=utf-8\n1 < Content-Length: 75\n1 < Connection: keep-alive\n1 < Report-To: {\"group\":\"heroku-nel\",\"max_age\":3600,\"endpoints\":[{\"url\":\"https:\/\/nel.heroku.com\/reports?ts=1716127992&sid=c4c9725f-1ab0-44d8-820f-430df2718e11&s=606zLyyqvUHehZ9wrVoQ4Am%2Bx5k%2BNSLlVhcLgsSDY3k%3D\"}]}\n1 < Reporting-Endpoints: heroku-nel=https:\/\/nel.heroku.com\/reports?ts=1716127992&sid=c4c9725f-1ab0-44d8-820f-430df2718e11&s=606zLyyqvUHehZ9wrVoQ4Am%2Bx5k%2BNSLlVhcLgsSDY3k%3D\n1 < Nel: {\"report_to\":\"heroku-nel\",\"max_age\":3600,\"success_fraction\":0.005,\"failure_fraction\":0.05,\"response_headers\":[\"Via\"]}\n1 < X-Powered-By: Express\n1 < Access-Control-Allow-Origin: *\n1 < Etag: W\/\"4b-DLGJb99ZQlmOMNw8Cwp2PsEWAV4\"\n1 < Via: 1.1 vegur\n1 < CF-Cache-Status: DYNAMIC\n1 < Server: cloudflare\n1 < CF-RAY: 8864afb118630996-MIA\n{\"name\":\"vic\",\"job\":\"qa\",\"id\":\"969\",\"createdAt\":\"2024-05-19T14:13:12.692Z\"}\n\n"},{"result":{"nanos":21201,"millis":0.021201,"status":"passed"},"step":{"line":12,"prefix":"Then","index":2,"text":"status 201"}},{"result":{"nanos":1878300,"millis":1.8783,"status":"passed"},"step":{"line":13,"prefix":"And","index":3,"text":"def contactId = $.id"}},{"result":{"nanos":588900,"millis":0.5889,"status":"passed"},"step":{"line":14,"prefix":"And","index":4,"text":"def name = $.name"}}],"line":9,"description":"","durationMillis":2222.1594,"failed":false,"tags":["Create","ignore"],"executorName":"main","name":"Post a user","startTime":1716127990376,"refId":"[1:9]","endTime":1716127992595,"exampleIndex":-1}],"callDepth":1,"name":"Reusable scenarios for post a user","description":"","resultDate":"2024-05-19 09:13:13 AM","durationMillis":2222.1594,"passedCount":1}]},{"result":{"nanos":10981000,"millis":10.981,"status":"passed"},"step":{"line":8,"prefix":"Given","index":0,"text":"url \"https:\/\/reqres.in\" + \"\/api\/users\""}},{"result":{"nanos":350132800,"millis":350.1328,"status":"passed"},"step":{"line":9,"prefix":"When","index":1,"text":"method get"},"stepLog":"09:13:12.611 request:\n2 > GET https:\/\/reqres.in\/api\/users\n2 > Host: reqres.in\n2 > Connection: Keep-Alive\n2 > User-Agent: Apache-HttpClient\/4.5.13 (Java\/1.8.0_202)\n2 > Accept-Encoding: gzip,deflate\n\n\n09:13:12.955 response time in milliseconds: 344\n2 < 200\n2 < Date: Sun, 19 May 2024 14:13:13 GMT\n2 < Content-Type: application\/json; charset=utf-8\n2 < Transfer-Encoding: chunked\n2 < Connection: keep-alive\n2 < Report-To: {\"group\":\"heroku-nel\",\"max_age\":3600,\"endpoints\":[{\"url\":\"https:\/\/nel.heroku.com\/reports?ts=1716008367&sid=c4c9725f-1ab0-44d8-820f-430df2718e11&s=uBz%2BPDHMKlsM5wEG1jq0rwJUrChPyeD25pGbD9K47NA%3D\"}]}\n2 < Reporting-Endpoints: heroku-nel=https:\/\/nel.heroku.com\/reports?ts=1716008367&sid=c4c9725f-1ab0-44d8-820f-430df2718e11&s=uBz%2BPDHMKlsM5wEG1jq0rwJUrChPyeD25pGbD9K47NA%3D\n2 < Nel: {\"report_to\":\"heroku-nel\",\"max_age\":3600,\"success_fraction\":0.005,\"failure_fraction\":0.05,\"response_headers\":[\"Via\"]}\n2 < X-Powered-By: Express\n2 < Access-Control-Allow-Origin: *\n2 < Etag: W\/\"3e4-2RLXvr5wTg9YQ6aH95CkYoFNuO8\"\n2 < Via: 1.1 vegur\n2 < Cache-Control: max-age=14400\n2 < CF-Cache-Status: HIT\n2 < Age: 799\n2 < Vary: Accept-Encoding\n2 < Server: cloudflare\n2 < CF-RAY: 8864afb4fcd80341-MIA\n{\"page\":1,\"per_page\":6,\"total\":12,\"total_pages\":2,\"data\":[{\"id\":1,\"email\":\"george.bluth@reqres.in\",\"first_name\":\"George\",\"last_name\":\"Bluth\",\"avatar\":\"https:\/\/reqres.in\/img\/faces\/1-image.jpg\"},{\"id\":2,\"email\":\"janet.weaver@reqres.in\",\"first_name\":\"Janet\",\"last_name\":\"Weaver\",\"avatar\":\"https:\/\/reqres.in\/img\/faces\/2-image.jpg\"},{\"id\":3,\"email\":\"emma.wong@reqres.in\",\"first_name\":\"Emma\",\"last_name\":\"Wong\",\"avatar\":\"https:\/\/reqres.in\/img\/faces\/3-image.jpg\"},{\"id\":4,\"email\":\"eve.holt@reqres.in\",\"first_name\":\"Eve\",\"last_name\":\"Holt\",\"avatar\":\"https:\/\/reqres.in\/img\/faces\/4-image.jpg\"},{\"id\":5,\"email\":\"charles.morris@reqres.in\",\"first_name\":\"Charles\",\"last_name\":\"Morris\",\"avatar\":\"https:\/\/reqres.in\/img\/faces\/5-image.jpg\"},{\"id\":6,\"email\":\"tracey.ramos@reqres.in\",\"first_name\":\"Tracey\",\"last_name\":\"Ramos\",\"avatar\":\"https:\/\/reqres.in\/img\/faces\/6-image.jpg\"}],\"support\":{\"url\":\"https:\/\/reqres.in\/#support-heading\",\"text\":\"To keep ReqRes free, contributions towards server costs are appreciated!\"}}\n\n"},{"result":{"nanos":16199,"millis":0.016199,"status":"passed"},"step":{"line":10,"prefix":"Then","index":2,"text":"status 200"}},{"result":{"nanos":229739300,"errorMessage":"match failed: EQUALS\n  $ | actual path does not exist (STRING:STRING)\n  '#notpresent'\n  'vic'\n\nsrc\/test\/java\/reqresIn\/get\/reqres-in-get.feature:12","millis":229.7393,"status":"failed"},"step":{"comments":["##And match $ == responseSuccessful"],"line":12,"prefix":"And","index":3,"text":"match $.name == name"},"stepLog":"09:13:13.197 src\/test\/java\/reqresIn\/get\/reqres-in-get.feature:12\nAnd match $.name == name\nmatch failed: EQUALS\n  $ | actual path does not exist (STRING:STRING)\n  '#notpresent'\n  'vic'\n\nsrc\/test\/java\/reqresIn\/get\/reqres-in-get.feature:12\n"}],"line":6,"description":"","durationMillis":2991.825198,"failed":true,"error":"match failed: EQUALS\n  $ | actual path does not exist (STRING:STRING)\n  '#notpresent'\n  'vic'\n\nsrc\/test\/java\/reqresIn\/get\/reqres-in-get.feature:12","executorName":"main","name":"Get a user","startTime":1716127989643,"refId":"[1:6]","endTime":1716127993197,"exampleIndex":-1}],"callDepth":0,"name":"Get user on regres","description":"","resultDate":"2024-05-19 09:13:13 AM","durationMillis":2991.825198,"passedCount":0}