{"failedCount":1,"prefixedPath":"src\/test\/java\/reqresIn\/get\/reqres-in-get.feature","packageQualifiedName":"src.test.java.reqresIn.get.reqres-in-get","loopIndex":-1,"relativePath":"src\/test\/java\/reqresIn\/get\/reqres-in-get.feature","scenarioResults":[{"sectionIndex":0,"stepResults":[{"result":{"nanos":153196500,"millis":153.1965,"status":"passed"},"step":{"background":true,"line":4,"prefix":"*","index":0,"text":"def responseSuccessful = read(\"successful-response-get.json\")"}},{"result":{"nanos":13815200,"millis":13.8152,"status":"passed"},"step":{"line":6,"prefix":"Given","index":0,"text":"url \"https:\/\/reqres.in\" + \"\/api-docs\/users\""}},{"result":{"nanos":2111031400,"millis":2111.0314,"status":"passed"},"step":{"line":7,"prefix":"When","index":1,"text":"method get"},"stepLog":"17:03:48.634 request:\n1 > GET https:\/\/reqres.in\/api-docs\/users\n1 > Host: reqres.in\n1 > Connection: Keep-Alive\n1 > User-Agent: Apache-HttpClient\/4.5.13 (Java\/1.8.0_202)\n1 > Accept-Encoding: gzip,deflate\n\n\n17:03:49.507 response time in milliseconds: 873\n1 < 200\n1 < Date: Sat, 18 May 2024 22:03:49 GMT\n1 < Content-Type: text\/html; charset=utf-8\n1 < Transfer-Encoding: chunked\n1 < Connection: keep-alive\n1 < Report-To: {\"group\":\"heroku-nel\",\"max_age\":3600,\"endpoints\":[{\"url\":\"https:\/\/nel.heroku.com\/reports?ts=1716069829&sid=c4c9725f-1ab0-44d8-820f-430df2718e11&s=VQ5uGdjVCveHOyy%2Bo9xjFOEHYHmPwm9ZWAM0urJnCIo%3D\"}]}\n1 < Reporting-Endpoints: heroku-nel=https:\/\/nel.heroku.com\/reports?ts=1716069829&sid=c4c9725f-1ab0-44d8-820f-430df2718e11&s=VQ5uGdjVCveHOyy%2Bo9xjFOEHYHmPwm9ZWAM0urJnCIo%3D\n1 < Nel: {\"report_to\":\"heroku-nel\",\"max_age\":3600,\"success_fraction\":0.005,\"failure_fraction\":0.05,\"response_headers\":[\"Via\"]}\n1 < X-Powered-By: Express\n1 < Via: 1.1 vegur\n1 < CF-Cache-Status: DYNAMIC\n1 < Server: cloudflare\n1 < CF-RAY: 885f23b3e9b58db8-MIA\n\n<!-- HTML for static distribution bundle build -->\n<!DOCTYPE html>\n<html lang=\"en\">\n<head>\n  <meta charset=\"UTF-8\">\n  <title>Swagger UI<\/title>\n  <link rel=\"stylesheet\" type=\"text\/css\" href=\".\/swagger-ui.css\" >\n  <link rel=\"icon\" type=\"image\/png\" href=\".\/favicon-32x32.png\" sizes=\"32x32\" \/><link rel=\"icon\" type=\"image\/png\" href=\".\/favicon-16x16.png\" sizes=\"16x16\" \/>\n  <style>\n    html\n    {\n      box-sizing: border-box;\n      overflow: -moz-scrollbars-vertical;\n      overflow-y: scroll;\n    }\n    *,\n    *:before,\n    *:after\n    {\n      box-sizing: inherit;\n    }\n\n    body {\n      margin:0;\n      background: #fafafa;\n    }\n  <\/style>\n<\/head>\n\n<body>\n\n<svg xmlns=\"http:\/\/www.w3.org\/2000\/svg\" xmlns:xlink=\"http:\/\/www.w3.org\/1999\/xlink\" style=\"position:absolute;width:0;height:0\">\n  <defs>\n    <symbol viewBox=\"0 0 20 20\" id=\"unlocked\">\n      <path d=\"M15.8 8H14V5.6C14 2.703 12.665 1 10 1 7.334 1 6 2.703 6 5.6V6h2v-.801C8 3.754 8.797 3 10 3c1.203 0 2 .754 2 2.199V8H4c-.553 0-1 .646-1 1.199V17c0 .549.428 1.139.951 1.307l1.197.387C5.672 18.861 6.55 19 7.1 19h5.8c.549 0 1.428-.139 1.951-.307l1.196-.387c.524-.167.953-.757.953-1.306V9.199C17 8.646 16.352 8 15.8 8z\"><\/path>\n    <\/symbol>\n\n    <symbol viewBox=\"0 0 20 20\" id=\"locked\">\n      <path d=\"M15.8 8H14V5.6C14 2.703 12.665 1 10 1 7.334 1 6 2.703 6 5.6V8H4c-.553 0-1 .646-1 1.199V17c0 .549.428 1.139.951 1.307l1.197.387C5.672 18.861 6.55 19 7.1 19h5.8c.549 0 1.428-.139 1.951-.307l1.196-.387c.524-.167.953-.757.953-1.306V9.199C17 8.646 16.352 8 15.8 8zM12 8H8V5.199C8 3.754 8.797 3 10 3c1.203 0 2 .754 2 2.199V8z\"\/>\n    <\/symbol>\n\n    <symbol viewBox=\"0 0 20 20\" id=\"close\">\n      <path d=\"M14.348 14.849c-.469.469-1.229.469-1.697 0L10 11.819l-2.651 3.029c-.469.469-1.229.469-1.697 0-.469-.469-.469-1.229 0-1.697l2.758-3.15-2.759-3.152c-.469-.469-.469-1.228 0-1.697.469-.469 1.228-.469 1.697 0L10 8.183l2.651-3.031c.469-.469 1.228-.469 1.697 0 .469.469.469 1.229 0 1.697l-2.758 3.152 2.758 3.15c.469.469.469 1.229 0 1.698z\"\/>\n    <\/symbol>\n\n    <symbol viewBox=\"0 0 20 20\" id=\"large-arrow\">\n      <path d=\"M13.25 10L6.109 2.58c-.268-.27-.268-.707 0-.979.268-.27.701-.27.969 0l7.83 7.908c.268.271.268.709 0 .979l-7.83 7.908c-.268.271-.701.27-.969 0-.268-.269-.268-.707 0-.979L13.25 10z\"\/>\n    <\/symbol>\n\n    <symbol viewBox=\"0 0 20 20\" id=\"large-arrow-down\">\n      <path d=\"M17.418 6.109c.272-.268.709-.268.979 0s.271.701 0 .969l-7.908 7.83c-.27.268-.707.268-.979 0l-7.908-7.83c-.27-.268-.27-.701 0-.969.271-.268.709-.268.979 0L10 13.25l7.418-7.141z\"\/>\n    <\/symbol>\n\n\n    <symbol viewBox=\"0 0 24 24\" id=\"jump-to\">\n      <path d=\"M19 7v4H5.83l3.58-3.59L8 6l-6 6 6 6 1.41-1.41L5.83 13H21V7z\"\/>\n    <\/symbol>\n\n    <symbol viewBox=\"0 0 24 24\" id=\"expand\">\n      <path d=\"M10 18h4v-2h-4v2zM3 6v2h18V6H3zm3 7h12v-2H6v2z\"\/>\n    <\/symbol>\n\n  <\/defs>\n<\/svg>\n\n<div id=\"swagger-ui\"><\/div>\n\n<script src=\".\/swagger-ui-bundle.js\"> <\/script>\n<script src=\".\/swagger-ui-standalone-preset.js\"> <\/script>\n<script src=\".\/swagger-ui-init.js\"> <\/script>\n\n\n\n<style>\n  .swagger-ui .topbar .download-url-wrapper { display: none } undefined\n<\/style>\n<\/body>\n\n<\/html>\n\n\n"},{"result":{"nanos":26000,"millis":0.026,"status":"passed"},"step":{"line":8,"prefix":"Then","index":2,"text":"status 200"}},{"result":{"nanos":33895400,"errorMessage":"match failed: EQUALS\n  $ | data types don't match (STRING:MAP)\n  '<!-- HTML for static distribution bundle build -->\n<!DOCTYPE html>\n<html lang=\"en\">\n<head>\n  <meta charset=\"UTF-8\">\n  <title>Swagger UI<\/title>\n  <link rel=\"stylesheet\" type=\"text\/css\" href=\".\/swagger-ui.css\" >\n  <link rel=\"icon\" type=\"image\/png\" href=\".\/favicon-32x32.png\" sizes=\"32x32\" \/><link rel=\"icon\" type=\"image\/png\" href=\".\/favicon-16x16.png\" sizes=\"16x16\" \/>\n  <style>\n    html\n    {\n      box-sizing: border-box;\n      overflow: -moz-scrollbars-vertical;\n      overflow-y: scroll;\n    }\n    *,\n    *:before,\n    *:after\n    {\n      box-sizing: inherit;\n    }\n\n    body {\n      margin:0;\n      background: #fafafa;\n    }\n  <\/style>\n<\/head>\n\n<body>\n\n<svg xmlns=\"http:\/\/www.w3.org\/2000\/svg\" xmlns:xlink=\"http:\/\/www.w3.org\/1999\/xlink\" style=\"position:absolute;width:0;height:0\">\n  <defs>\n    <symbol viewBox=\"0 0 20 20\" id=\"unlocked\">\n      <path d=\"M15.8 8H14V5.6C14 2.703 12.665 1 10 1 7.334 1 6 2.703 6 5.6V6h2v-.801C8 3.754 8.797 3 10 3c1.203 0 2 .754 2 2.199V8H4c-.553 0-1 .646-1 1.199V17c0 .549.428 1.139.951 1.307l1.197.387C5.672 18.861 6.55 19 7.1 19h5.8c.549 0 1.428-.139 1.951-.307l1.196-.387c.524-.167.953-.757.953-1.306V9.199C17 8.646 16.352 8 15.8 8z\"><\/path>\n    <\/symbol>\n\n    <symbol viewBox=\"0 0 20 20\" id=\"locked\">\n      <path d=\"M15.8 8H14V5.6C14 2.703 12.665 1 10 1 7.334 1 6 2.703 6 5.6V8H4c-.553 0-1 .646-1 1.199V17c0 .549.428 1.139.951 1.307l1.197.387C5.672 18.861 6.55 19 7.1 19h5.8c.549 0 1.428-.139 1.951-.307l1.196-.387c.524-.167.953-.757.953-1.306V9.199C17 8.646 16.352 8 15.8 8zM12 8H8V5.199C8 3.754 8.797 3 10 3c1.203 0 2 .754 2 2.199V8z\"\/>\n    <\/symbol>\n\n    <symbol viewBox=\"0 0 20 20\" id=\"close\">\n      <path d=\"M14.348 14.849c-.469.469-1.229.469-1.697 0L10 11.819l-2.651 3.029c-.469.469-1.229.469-1.697 0-.469-.469-.469-1.229 0-1.697l2.758-3.15-2.759-3.152c-.469-.469-.469-1.228 0-1.697.469-.469 1.228-.469 1.697 0L10 8.183l2.651-3.031c.469-.469 1.228-.469 1.697 0 .469.469.469 1.229 0 1.697l-2.758 3.152 2.758 3.15c.469.469.469 1.229 0 1.698z\"\/>\n    <\/symbol>\n\n    <symbol viewBox=\"0 0 20 20\" id=\"large-arrow\">\n      <path d=\"M13.25 10L6.109 2.58c-.268-.27-.268-.707 0-.979.268-.27.701-.27.969 0l7.83 7.908c.268.271.268.709 0 .979l-7.83 7.908c-.268.271-.701.27-.969 0-.268-.269-.268-.707 0-.979L13.25 10z\"\/>\n    <\/symbol>\n\n    <symbol viewBox=\"0 0 20 20\" id=\"large-arrow-down\">\n      <path d=\"M17.418 6.109c.272-.268.709-.268.979 0s.271.701 0 .969l-7.908 7.83c-.27.268-.707.268-.979 0l-7.908-7.83c-.27-.268-.27-.701 0-.969.271-.268.709-.268.979 0L10 13.25l7.418-7.141z\"\/>\n    <\/symbol>\n\n\n    <symbol viewBox=\"0 0 24 24\" id=\"jump-to\">\n      <path d=\"M19 7v4H5.83l3.58-3.59L8 6l-6 6 6 6 1.41-1.41L5.83 13H21V7z\"\/>\n    <\/symbol>\n\n    <symbol viewBox=\"0 0 24 24\" id=\"expand\">\n      <path d=\"M10 18h4v-2h-4v2zM3 6v2h18V6H3zm3 7h12v-2H6v2z\"\/>\n    <\/symbol>\n\n  <\/defs>\n<\/svg>\n\n<div id=\"swagger-ui\"><\/div>\n\n<script src=\".\/swagger-ui-bundle.js\"> <\/script>\n<script src=\".\/swagger-ui-standalone-preset.js\"> <\/script>\n<script src=\".\/swagger-ui-init.js\"> <\/script>\n\n\n\n<style>\n  .swagger-ui .topbar .download-url-wrapper { display: none } undefined\n<\/style>\n<\/body>\n\n<\/html>'\n  {\"page\":1,\"per_page\":6,\"total\":12,\"total_pages\":2,\"data\":[{\"id\":1,\"email\":\"george.bluth@reqres.in\",\"first_name\":\"George\",\"last_name\":\"Bluth\",\"avatar\":\"https:\/\/reqres.in\/img\/faces\/1-image.jpg\"},{\"id\":2,\"email\":\"janet.weaver@reqres.in\",\"first_name\":\"Janet\",\"last_name\":\"Weaver\",\"avatar\":\"https:\/\/reqres.in\/img\/faces\/2-image.jpg\"},{\"id\":3,\"email\":\"emma.wong@reqres.in\",\"first_name\":\"Emma\",\"last_name\":\"Wong\",\"avatar\":\"https:\/\/reqres.in\/img\/faces\/3-image.jpg\"},{\"id\":4,\"email\":\"eve.holt@reqres.in\",\"first_name\":\"Eve\",\"last_name\":\"Holt\",\"avatar\":\"https:\/\/reqres.in\/img\/faces\/4-image.jpg\"},{\"id\":5,\"email\":\"charles.morris@reqres.in\",\"first_name\":\"Charles\",\"last_name\":\"Morris\",\"avatar\":\"https:\/\/reqres.in\/img\/faces\/5-image.jpg\"},{\"id\":6,\"email\":\"tracey.ramos@reqres.in\",\"first_name\":\"Tracey\",\"last_name\":\"Ramos\",\"avatar\":\"https:\/\/reqres.in\/img\/faces\/6-image.jpg\"}],\"support\":{\"url\":\"https:\/\/reqres.in\/#support-heading\",\"text\":\"To keep ReqRes free, contributions towards server costs are appreciated!\"}}\n\nsrc\/test\/java\/reqresIn\/get\/reqres-in-get.feature:9","millis":33.8954,"status":"failed"},"step":{"line":9,"prefix":"And","index":3,"text":"match $ == responseSuccessful"},"stepLog":"17:03:49.548 src\/test\/java\/reqresIn\/get\/reqres-in-get.feature:9\nAnd match $ == responseSuccessful\nmatch failed: EQUALS\n  $ | data types don't match (STRING:MAP)\n  '<!-- HTML for static distribution bundle build -->\n<!DOCTYPE html>\n<html lang=\"en\">\n<head>\n  <meta charset=\"UTF-8\">\n  <title>Swagger UI<\/title>\n  <link rel=\"stylesheet\" type=\"text\/css\" href=\".\/swagger-ui.css\" >\n  <link rel=\"icon\" type=\"image\/png\" href=\".\/favicon-32x32.png\" sizes=\"32x32\" \/><link rel=\"icon\" type=\"image\/png\" href=\".\/favicon-16x16.png\" sizes=\"16x16\" \/>\n  <style>\n    html\n    {\n      box-sizing: border-box;\n      overflow: -moz-scrollbars-vertical;\n      overflow-y: scroll;\n    }\n    *,\n    *:before,\n    *:after\n    {\n      box-sizing: inherit;\n    }\n\n    body {\n      margin:0;\n      background: #fafafa;\n    }\n  <\/style>\n<\/head>\n\n<body>\n\n<svg xmlns=\"http:\/\/www.w3.org\/2000\/svg\" xmlns:xlink=\"http:\/\/www.w3.org\/1999\/xlink\" style=\"position:absolute;width:0;height:0\">\n  <defs>\n    <symbol viewBox=\"0 0 20 20\" id=\"unlocked\">\n      <path d=\"M15.8 8H14V5.6C14 2.703 12.665 1 10 1 7.334 1 6 2.703 6 5.6V6h2v-.801C8 3.754 8.797 3 10 3c1.203 0 2 .754 2 2.199V8H4c-.553 0-1 .646-1 1.199V17c0 .549.428 1.139.951 1.307l1.197.387C5.672 18.861 6.55 19 7.1 19h5.8c.549 0 1.428-.139 1.951-.307l1.196-.387c.524-.167.953-.757.953-1.306V9.199C17 8.646 16.352 8 15.8 8z\"><\/path>\n    <\/symbol>\n\n    <symbol viewBox=\"0 0 20 20\" id=\"locked\">\n      <path d=\"M15.8 8H14V5.6C14 2.703 12.665 1 10 1 7.334 1 6 2.703 6 5.6V8H4c-.553 0-1 .646-1 1.199V17c0 .549.428 1.139.951 1.307l1.197.387C5.672 18.861 6.55 19 7.1 19h5.8c.549 0 1.428-.139 1.951-.307l1.196-.387c.524-.167.953-.757.953-1.306V9.199C17 8.646 16.352 8 15.8 8zM12 8H8V5.199C8 3.754 8.797 3 10 3c1.203 0 2 .754 2 2.199V8z\"\/>\n    <\/symbol>\n\n    <symbol viewBox=\"0 0 20 20\" id=\"close\">\n      <path d=\"M14.348 14.849c-.469.469-1.229.469-1.697 0L10 11.819l-2.651 3.029c-.469.469-1.229.469-1.697 0-.469-.469-.469-1.229 0-1.697l2.758-3.15-2.759-3.152c-.469-.469-.469-1.228 0-1.697.469-.469 1.228-.469 1.697 0L10 8.183l2.651-3.031c.469-.469 1.228-.469 1.697 0 .469.469.469 1.229 0 1.697l-2.758 3.152 2.758 3.15c.469.469.469 1.229 0 1.698z\"\/>\n    <\/symbol>\n\n    <symbol viewBox=\"0 0 20 20\" id=\"large-arrow\">\n      <path d=\"M13.25 10L6.109 2.58c-.268-.27-.268-.707 0-.979.268-.27.701-.27.969 0l7.83 7.908c.268.271.268.709 0 .979l-7.83 7.908c-.268.271-.701.27-.969 0-.268-.269-.268-.707 0-.979L13.25 10z\"\/>\n    <\/symbol>\n\n    <symbol viewBox=\"0 0 20 20\" id=\"large-arrow-down\">\n      <path d=\"M17.418 6.109c.272-.268.709-.268.979 0s.271.701 0 .969l-7.908 7.83c-.27.268-.707.268-.979 0l-7.908-7.83c-.27-.268-.27-.701 0-.969.271-.268.709-.268.979 0L10 13.25l7.418-7.141z\"\/>\n    <\/symbol>\n\n\n    <symbol viewBox=\"0 0 24 24\" id=\"jump-to\">\n      <path d=\"M19 7v4H5.83l3.58-3.59L8 6l-6 6 6 6 1.41-1.41L5.83 13H21V7z\"\/>\n    <\/symbol>\n\n    <symbol viewBox=\"0 0 24 24\" id=\"expand\">\n      <path d=\"M10 18h4v-2h-4v2zM3 6v2h18V6H3zm3 7h12v-2H6v2z\"\/>\n    <\/symbol>\n\n  <\/defs>\n<\/svg>\n\n<div id=\"swagger-ui\"><\/div>\n\n<script src=\".\/swagger-ui-bundle.js\"> <\/script>\n<script src=\".\/swagger-ui-standalone-preset.js\"> <\/script>\n<script src=\".\/swagger-ui-init.js\"> <\/script>\n\n\n\n<style>\n  .swagger-ui .topbar .download-url-wrapper { display: none } undefined\n<\/style>\n<\/body>\n\n<\/html>'\n  {\"page\":1,\"per_page\":6,\"total\":12,\"total_pages\":2,\"data\":[{\"id\":1,\"email\":\"george.bluth@reqres.in\",\"first_name\":\"George\",\"last_name\":\"Bluth\",\"avatar\":\"https:\/\/reqres.in\/img\/faces\/1-image.jpg\"},{\"id\":2,\"email\":\"janet.weaver@reqres.in\",\"first_name\":\"Janet\",\"last_name\":\"Weaver\",\"avatar\":\"https:\/\/reqres.in\/img\/faces\/2-image.jpg\"},{\"id\":3,\"email\":\"emma.wong@reqres.in\",\"first_name\":\"Emma\",\"last_name\":\"Wong\",\"avatar\":\"https:\/\/reqres.in\/img\/faces\/3-image.jpg\"},{\"id\":4,\"email\":\"eve.holt@reqres.in\",\"first_name\":\"Eve\",\"last_name\":\"Holt\",\"avatar\":\"https:\/\/reqres.in\/img\/faces\/4-image.jpg\"},{\"id\":5,\"email\":\"charles.morris@reqres.in\",\"first_name\":\"Charles\",\"last_name\":\"Morris\",\"avatar\":\"https:\/\/reqres.in\/img\/faces\/5-image.jpg\"},{\"id\":6,\"email\":\"tracey.ramos@reqres.in\",\"first_name\":\"Tracey\",\"last_name\":\"Ramos\",\"avatar\":\"https:\/\/reqres.in\/img\/faces\/6-image.jpg\"}],\"support\":{\"url\":\"https:\/\/reqres.in\/#support-heading\",\"text\":\"To keep ReqRes free, contributions towards server costs are appreciated!\"}}\n\nsrc\/test\/java\/reqresIn\/get\/reqres-in-get.feature:9\n"}],"line":5,"description":"","durationMillis":2311.9645,"failed":true,"error":"match failed: EQUALS\n  $ | data types don't match (STRING:MAP)\n  '<!-- HTML for static distribution bundle build -->\n<!DOCTYPE html>\n<html lang=\"en\">\n<head>\n  <meta charset=\"UTF-8\">\n  <title>Swagger UI<\/title>\n  <link rel=\"stylesheet\" type=\"text\/css\" href=\".\/swagger-ui.css\" >\n  <link rel=\"icon\" type=\"image\/png\" href=\".\/favicon-32x32.png\" sizes=\"32x32\" \/><link rel=\"icon\" type=\"image\/png\" href=\".\/favicon-16x16.png\" sizes=\"16x16\" \/>\n  <style>\n    html\n    {\n      box-sizing: border-box;\n      overflow: -moz-scrollbars-vertical;\n      overflow-y: scroll;\n    }\n    *,\n    *:before,\n    *:after\n    {\n      box-sizing: inherit;\n    }\n\n    body {\n      margin:0;\n      background: #fafafa;\n    }\n  <\/style>\n<\/head>\n\n<body>\n\n<svg xmlns=\"http:\/\/www.w3.org\/2000\/svg\" xmlns:xlink=\"http:\/\/www.w3.org\/1999\/xlink\" style=\"position:absolute;width:0;height:0\">\n  <defs>\n    <symbol viewBox=\"0 0 20 20\" id=\"unlocked\">\n      <path d=\"M15.8 8H14V5.6C14 2.703 12.665 1 10 1 7.334 1 6 2.703 6 5.6V6h2v-.801C8 3.754 8.797 3 10 3c1.203 0 2 .754 2 2.199V8H4c-.553 0-1 .646-1 1.199V17c0 .549.428 1.139.951 1.307l1.197.387C5.672 18.861 6.55 19 7.1 19h5.8c.549 0 1.428-.139 1.951-.307l1.196-.387c.524-.167.953-.757.953-1.306V9.199C17 8.646 16.352 8 15.8 8z\"><\/path>\n    <\/symbol>\n\n    <symbol viewBox=\"0 0 20 20\" id=\"locked\">\n      <path d=\"M15.8 8H14V5.6C14 2.703 12.665 1 10 1 7.334 1 6 2.703 6 5.6V8H4c-.553 0-1 .646-1 1.199V17c0 .549.428 1.139.951 1.307l1.197.387C5.672 18.861 6.55 19 7.1 19h5.8c.549 0 1.428-.139 1.951-.307l1.196-.387c.524-.167.953-.757.953-1.306V9.199C17 8.646 16.352 8 15.8 8zM12 8H8V5.199C8 3.754 8.797 3 10 3c1.203 0 2 .754 2 2.199V8z\"\/>\n    <\/symbol>\n\n    <symbol viewBox=\"0 0 20 20\" id=\"close\">\n      <path d=\"M14.348 14.849c-.469.469-1.229.469-1.697 0L10 11.819l-2.651 3.029c-.469.469-1.229.469-1.697 0-.469-.469-.469-1.229 0-1.697l2.758-3.15-2.759-3.152c-.469-.469-.469-1.228 0-1.697.469-.469 1.228-.469 1.697 0L10 8.183l2.651-3.031c.469-.469 1.228-.469 1.697 0 .469.469.469 1.229 0 1.697l-2.758 3.152 2.758 3.15c.469.469.469 1.229 0 1.698z\"\/>\n    <\/symbol>\n\n    <symbol viewBox=\"0 0 20 20\" id=\"large-arrow\">\n      <path d=\"M13.25 10L6.109 2.58c-.268-.27-.268-.707 0-.979.268-.27.701-.27.969 0l7.83 7.908c.268.271.268.709 0 .979l-7.83 7.908c-.268.271-.701.27-.969 0-.268-.269-.268-.707 0-.979L13.25 10z\"\/>\n    <\/symbol>\n\n    <symbol viewBox=\"0 0 20 20\" id=\"large-arrow-down\">\n      <path d=\"M17.418 6.109c.272-.268.709-.268.979 0s.271.701 0 .969l-7.908 7.83c-.27.268-.707.268-.979 0l-7.908-7.83c-.27-.268-.27-.701 0-.969.271-.268.709-.268.979 0L10 13.25l7.418-7.141z\"\/>\n    <\/symbol>\n\n\n    <symbol viewBox=\"0 0 24 24\" id=\"jump-to\">\n      <path d=\"M19 7v4H5.83l3.58-3.59L8 6l-6 6 6 6 1.41-1.41L5.83 13H21V7z\"\/>\n    <\/symbol>\n\n    <symbol viewBox=\"0 0 24 24\" id=\"expand\">\n      <path d=\"M10 18h4v-2h-4v2zM3 6v2h18V6H3zm3 7h12v-2H6v2z\"\/>\n    <\/symbol>\n\n  <\/defs>\n<\/svg>\n\n<div id=\"swagger-ui\"><\/div>\n\n<script src=\".\/swagger-ui-bundle.js\"> <\/script>\n<script src=\".\/swagger-ui-standalone-preset.js\"> <\/script>\n<script src=\".\/swagger-ui-init.js\"> <\/script>\n\n\n\n<style>\n  .swagger-ui .topbar .download-url-wrapper { display: none } undefined\n<\/style>\n<\/body>\n\n<\/html>'\n  {\"page\":1,\"per_page\":6,\"total\":12,\"total_pages\":2,\"data\":[{\"id\":1,\"email\":\"george.bluth@reqres.in\",\"first_name\":\"George\",\"last_name\":\"Bluth\",\"avatar\":\"https:\/\/reqres.in\/img\/faces\/1-image.jpg\"},{\"id\":2,\"email\":\"janet.weaver@reqres.in\",\"first_name\":\"Janet\",\"last_name\":\"Weaver\",\"avatar\":\"https:\/\/reqres.in\/img\/faces\/2-image.jpg\"},{\"id\":3,\"email\":\"emma.wong@reqres.in\",\"first_name\":\"Emma\",\"last_name\":\"Wong\",\"avatar\":\"https:\/\/reqres.in\/img\/faces\/3-image.jpg\"},{\"id\":4,\"email\":\"eve.holt@reqres.in\",\"first_name\":\"Eve\",\"last_name\":\"Holt\",\"avatar\":\"https:\/\/reqres.in\/img\/faces\/4-image.jpg\"},{\"id\":5,\"email\":\"charles.morris@reqres.in\",\"first_name\":\"Charles\",\"last_name\":\"Morris\",\"avatar\":\"https:\/\/reqres.in\/img\/faces\/5-image.jpg\"},{\"id\":6,\"email\":\"tracey.ramos@reqres.in\",\"first_name\":\"Tracey\",\"last_name\":\"Ramos\",\"avatar\":\"https:\/\/reqres.in\/img\/faces\/6-image.jpg\"}],\"support\":{\"url\":\"https:\/\/reqres.in\/#support-heading\",\"text\":\"To keep ReqRes free, contributions towards server costs are appreciated!\"}}\n\nsrc\/test\/java\/reqresIn\/get\/reqres-in-get.feature:9","executorName":"main","name":"Get a user","startTime":1716069826743,"refId":"[1:5]","endTime":1716069829548,"exampleIndex":-1}],"callDepth":0,"name":"Get user on regres","description":"","resultDate":"2024-05-18 05:03:49 PM","durationMillis":2311.9645,"passedCount":0}