{"failedCount":0,"prefixedPath":"src\/test\/java\/reqresIn\/get\/reqres-in-get.feature","packageQualifiedName":"src.test.java.reqresIn.get.reqres-in-get","loopIndex":-1,"relativePath":"src\/test\/java\/reqresIn\/get\/reqres-in-get.feature","scenarioResults":[{"sectionIndex":0,"stepResults":[{"result":{"nanos":91794399,"millis":91.794399,"status":"passed"},"step":{"background":true,"line":4,"prefix":"*","index":0,"text":"def responseSuccessful = read(\"successful-response-get.json\")"}},{"result":{"nanos":1341047900,"millis":1341.0479,"status":"passed"},"step":{"line":7,"prefix":"*","index":0,"text":"call read(\"..\/post\/regres-in-post.feature@Create\")"},"callResults":[{"failedCount":0,"prefixedPath":"src\/test\/java\/reqresIn\/get\/..\/post\/regres-in-post.feature","packageQualifiedName":"src.test.java.reqresIn.get.post.regres-in-post","loopIndex":-1,"relativePath":"src\/test\/java\/reqresIn\/get\/..\/post\/regres-in-post.feature","scenarioResults":[{"sectionIndex":0,"stepResults":[{"result":{"nanos":1179500,"millis":1.1795,"status":"passed"},"step":{"background":true,"line":5,"prefix":"*","index":0,"text":"url \"https:\/\/reqres.in\""}},{"result":{"nanos":484200,"millis":0.4842,"status":"passed"},"step":{"background":true,"line":6,"prefix":"*","index":1,"text":"path \"\/api\/users\""}},{"result":{"nanos":305700,"millis":0.3057,"status":"passed"},"step":{"background":true,"line":7,"prefix":"*","index":2,"text":"def var = {\"name\": \"vic\", \"job\":\"qa\"}"}},{"result":{"nanos":1765001,"millis":1.765001,"status":"passed"},"step":{"line":10,"prefix":"Given","index":0,"text":"request var"}},{"result":{"nanos":1317855300,"millis":1317.8553,"status":"passed"},"step":{"line":11,"prefix":"When","index":1,"text":"method post"},"stepLog":"08:45:00.680 request:\n1 > POST https:\/\/reqres.in\/api\/users\n1 > Content-Type: application\/json; charset=UTF-8\n1 > Content-Length: 25\n1 > Host: reqres.in\n1 > Connection: Keep-Alive\n1 > User-Agent: Apache-HttpClient\/4.5.13 (Java\/1.8.0_202)\n1 > Accept-Encoding: gzip,deflate\n{\"name\":\"vic\",\"job\":\"qa\"}\n\n08:45:01.354 response time in milliseconds: 674\n1 < 201\n1 < Date: Sun, 19 May 2024 13:45:01 GMT\n1 < Content-Type: application\/json; charset=utf-8\n1 < Content-Length: 75\n1 < Connection: keep-alive\n1 < Report-To: {\"group\":\"heroku-nel\",\"max_age\":3600,\"endpoints\":[{\"url\":\"https:\/\/nel.heroku.com\/reports?ts=1716126301&sid=c4c9725f-1ab0-44d8-820f-430df2718e11&s=XXuNiYbr8Et%2F3k4TOvJY8D7Bx4Ws09na11GGeJjEkKo%3D\"}]}\n1 < Reporting-Endpoints: heroku-nel=https:\/\/nel.heroku.com\/reports?ts=1716126301&sid=c4c9725f-1ab0-44d8-820f-430df2718e11&s=XXuNiYbr8Et%2F3k4TOvJY8D7Bx4Ws09na11GGeJjEkKo%3D\n1 < Nel: {\"report_to\":\"heroku-nel\",\"max_age\":3600,\"success_fraction\":0.005,\"failure_fraction\":0.05,\"response_headers\":[\"Via\"]}\n1 < X-Powered-By: Express\n1 < Access-Control-Allow-Origin: *\n1 < Etag: W\/\"4b-h\/i8EUyvxglDLcN0Rvpp1hosJoY\"\n1 < Via: 1.1 vegur\n1 < CF-Cache-Status: DYNAMIC\n1 < Server: cloudflare\n1 < CF-RAY: 88648666d966495a-MIA\n{\"name\":\"vic\",\"job\":\"qa\",\"id\":\"685\",\"createdAt\":\"2024-05-19T13:45:01.452Z\"}\n\n"},{"result":{"nanos":11600,"millis":0.0116,"status":"passed"},"step":{"line":12,"prefix":"Then","index":2,"text":"status 201"}},{"result":{"nanos":1114400,"millis":1.1144,"status":"passed"},"step":{"line":13,"prefix":"And","index":3,"text":"def contactId = $.id"}}],"line":9,"description":"","durationMillis":1322.715701,"failed":false,"tags":["Create","ignore"],"executorName":"main","name":"Post a user","startTime":1716126300040,"refId":"[1:9]","endTime":1716126301354,"exampleIndex":-1}],"callDepth":1,"name":"Reusable scenarios for post a user","description":"","resultDate":"2024-05-19 08:45:01 AM","durationMillis":1322.715701,"passedCount":1}]},{"result":{"nanos":12470201,"millis":12.470201,"status":"passed"},"step":{"line":8,"prefix":"Given","index":1,"text":"url \"https:\/\/reqres.in\" + \"\/api\/users\" + contactId"}},{"result":{"nanos":570394199,"millis":570.394199,"status":"passed"},"step":{"line":9,"prefix":"When","index":2,"text":"method get"},"stepLog":"08:45:01.370 request:\n2 > GET https:\/\/reqres.in\/api\/users685\n2 > Host: reqres.in\n2 > Connection: Keep-Alive\n2 > User-Agent: Apache-HttpClient\/4.5.13 (Java\/1.8.0_202)\n2 > Accept-Encoding: gzip,deflate\n\n\n08:45:01.943 response time in milliseconds: 573\n2 < 200\n2 < Date: Sun, 19 May 2024 13:45:02 GMT\n2 < Content-Type: application\/json; charset=utf-8\n2 < Transfer-Encoding: chunked\n2 < Connection: keep-alive\n2 < Report-To: {\"group\":\"heroku-nel\",\"max_age\":3600,\"endpoints\":[{\"url\":\"https:\/\/nel.heroku.com\/reports?ts=1716126301&sid=c4c9725f-1ab0-44d8-820f-430df2718e11&s=XXuNiYbr8Et%2F3k4TOvJY8D7Bx4Ws09na11GGeJjEkKo%3D\"}]}\n2 < Reporting-Endpoints: heroku-nel=https:\/\/nel.heroku.com\/reports?ts=1716126301&sid=c4c9725f-1ab0-44d8-820f-430df2718e11&s=XXuNiYbr8Et%2F3k4TOvJY8D7Bx4Ws09na11GGeJjEkKo%3D\n2 < Nel: {\"report_to\":\"heroku-nel\",\"max_age\":3600,\"success_fraction\":0.005,\"failure_fraction\":0.05,\"response_headers\":[\"Via\"]}\n2 < X-Powered-By: Express\n2 < Access-Control-Allow-Origin: *\n2 < Etag: W\/\"2c1-N6Rqerxquq2kgQhL51EiSg4x0R8\"\n2 < Via: 1.1 vegur\n2 < Cache-Control: max-age=14400\n2 < CF-Cache-Status: MISS\n2 < Vary: Accept-Encoding\n2 < Server: cloudflare\n2 < CF-RAY: 8864866a194d4c1a-MIA\n{\"page\":1,\"per_page\":6,\"total\":12,\"total_pages\":2,\"data\":[{\"id\":1,\"name\":\"cerulean\",\"year\":2000,\"color\":\"#98B2D1\",\"pantone_value\":\"15-4020\"},{\"id\":2,\"name\":\"fuchsia rose\",\"year\":2001,\"color\":\"#C74375\",\"pantone_value\":\"17-2031\"},{\"id\":3,\"name\":\"true red\",\"year\":2002,\"color\":\"#BF1932\",\"pantone_value\":\"19-1664\"},{\"id\":4,\"name\":\"aqua sky\",\"year\":2003,\"color\":\"#7BC4C4\",\"pantone_value\":\"14-4811\"},{\"id\":5,\"name\":\"tigerlily\",\"year\":2004,\"color\":\"#E2583E\",\"pantone_value\":\"17-1456\"},{\"id\":6,\"name\":\"blue turquoise\",\"year\":2005,\"color\":\"#53B0AE\",\"pantone_value\":\"15-5217\"}],\"support\":{\"url\":\"https:\/\/reqres.in\/#support-heading\",\"text\":\"To keep ReqRes free, contributions towards server costs are appreciated!\"}}\n\n"},{"result":{"nanos":9799,"millis":0.009799,"status":"passed"},"step":{"line":10,"prefix":"Then","index":3,"text":"status 200"}}],"executorName":"main","line":6,"name":"Get a user","description":"","durationMillis":2015.716498,"startTime":1716126299629,"failed":false,"refId":"[1:6]","endTime":1716126301943,"exampleIndex":-1}],"callDepth":0,"name":"Get user on regres","description":"","resultDate":"2024-05-19 08:45:01 AM","durationMillis":2015.716498,"passedCount":1}