{"failedCount":1,"prefixedPath":"src\/test\/java\/reqresIn\/get\/reqres-in-get.feature","packageQualifiedName":"src.test.java.reqresIn.get.reqres-in-get","loopIndex":-1,"relativePath":"src\/test\/java\/reqresIn\/get\/reqres-in-get.feature","scenarioResults":[{"sectionIndex":0,"stepResults":[{"result":{"nanos":153439100,"millis":153.4391,"status":"passed"},"step":{"background":true,"line":4,"prefix":"*","index":0,"text":"def responseSuccessful = read(\"successful-response-get.json\")"}},{"result":{"nanos":2778162000,"millis":2778.162,"status":"passed"},"step":{"background":true,"line":5,"prefix":"*","index":1,"text":"call read(\"..\/post\/regres-in-post.feature@Create\")"},"callResults":[{"failedCount":0,"prefixedPath":"src\/test\/java\/reqresIn\/get\/..\/post\/regres-in-post.feature","packageQualifiedName":"src.test.java.reqresIn.get.post.regres-in-post","loopIndex":-1,"relativePath":"src\/test\/java\/reqresIn\/get\/..\/post\/regres-in-post.feature","scenarioResults":[{"sectionIndex":0,"stepResults":[{"result":{"nanos":2289500,"millis":2.2895,"status":"passed"},"step":{"background":true,"line":5,"prefix":"*","index":0,"text":"url \"https:\/\/reqres.in\""}},{"result":{"nanos":846800,"millis":0.8468,"status":"passed"},"step":{"background":true,"line":6,"prefix":"*","index":1,"text":"path \"\/api\/users\/\""}},{"result":{"nanos":687100,"millis":0.6871,"status":"passed"},"step":{"background":true,"line":7,"prefix":"*","index":2,"text":"def var = { \"username\": \"vic\", \"email\": \"victor@gmail.com\", \"password\": \"123\" }"}},{"result":{"nanos":3595600,"millis":3.5956,"status":"passed"},"step":{"line":10,"prefix":"Given","index":0,"text":"request var"}},{"result":{"nanos":2736180700,"millis":2736.1807,"status":"passed"},"step":{"line":11,"prefix":"When","index":1,"text":"method post"},"stepLog":"10:36:42.408 request:\n1 > POST https:\/\/reqres.in\/api\/users\n1 > Content-Type: application\/json; charset=UTF-8\n1 > Content-Length: 62\n1 > Host: reqres.in\n1 > Connection: Keep-Alive\n1 > User-Agent: Apache-HttpClient\/4.5.13 (Java\/1.8.0_202)\n1 > Accept-Encoding: gzip,deflate\n{\"username\":\"vic\",\"email\":\"victor@gmail.com\",\"password\":\"123\"}\n\n10:36:43.738 response time in milliseconds: 1330\n1 < 201\n1 < Date: Sun, 19 May 2024 15:36:43 GMT\n1 < Content-Type: application\/json; charset=utf-8\n1 < Content-Length: 112\n1 < Connection: keep-alive\n1 < Report-To: {\"group\":\"heroku-nel\",\"max_age\":3600,\"endpoints\":[{\"url\":\"https:\/\/nel.heroku.com\/reports?ts=1716133003&sid=c4c9725f-1ab0-44d8-820f-430df2718e11&s=tbtam5zcX6tk3f9URaEtUKKAwz28rLOmvvmtgnWq6J8%3D\"}]}\n1 < Reporting-Endpoints: heroku-nel=https:\/\/nel.heroku.com\/reports?ts=1716133003&sid=c4c9725f-1ab0-44d8-820f-430df2718e11&s=tbtam5zcX6tk3f9URaEtUKKAwz28rLOmvvmtgnWq6J8%3D\n1 < Nel: {\"report_to\":\"heroku-nel\",\"max_age\":3600,\"success_fraction\":0.005,\"failure_fraction\":0.05,\"response_headers\":[\"Via\"]}\n1 < X-Powered-By: Express\n1 < Access-Control-Allow-Origin: *\n1 < Etag: W\/\"70-r+th6CbDWLOzqGKDhoaVJvMpvtY\"\n1 < Via: 1.1 vegur\n1 < CF-Cache-Status: DYNAMIC\n1 < Server: cloudflare\n1 < CF-RAY: 88652a0859008e06-MIA\n{\"username\":\"vic\",\"email\":\"victor@gmail.com\",\"password\":\"123\",\"id\":\"360\",\"createdAt\":\"2024-05-19T15:36:43.775Z\"}\n\n"},{"result":{"nanos":22000,"millis":0.022,"status":"passed"},"step":{"line":12,"prefix":"Then","index":2,"text":"status 201"}},{"result":{"nanos":1316100,"millis":1.3161,"status":"passed"},"step":{"line":13,"prefix":"And","index":3,"text":"def contactId = response.id"}}],"line":9,"description":"","durationMillis":2744.9378,"failed":false,"tags":["Create","ignore"],"executorName":"main","name":"Post a user","startTime":1716133001008,"refId":"[1:9]","endTime":1716133003754,"exampleIndex":-1}],"callDepth":1,"name":"Reusable scenarios for post a user","description":"","resultDate":"2024-05-19 10:36:44 AM","durationMillis":2744.9378,"passedCount":1}]},{"result":{"nanos":11564600,"millis":11.5646,"status":"passed"},"step":{"line":8,"prefix":"Given","index":0,"text":"url \"https:\/\/reqres.in\" + \"\/api\/users\"  + \"2\""}},{"result":{"nanos":238710600,"millis":238.7106,"status":"passed"},"step":{"line":9,"prefix":"When","index":1,"text":"method get"},"stepLog":"10:36:43.772 request:\n2 > GET https:\/\/reqres.in\/api\/users2\n2 > Host: reqres.in\n2 > Connection: Keep-Alive\n2 > User-Agent: Apache-HttpClient\/4.5.13 (Java\/1.8.0_202)\n2 > Accept-Encoding: gzip,deflate\n\n\n10:36:44.001 response time in milliseconds: 229\n2 < 200\n2 < Date: Sun, 19 May 2024 15:36:44 GMT\n2 < Content-Type: application\/json; charset=utf-8\n2 < Transfer-Encoding: chunked\n2 < Connection: keep-alive\n2 < Report-To: {\"group\":\"heroku-nel\",\"max_age\":3600,\"endpoints\":[{\"url\":\"https:\/\/nel.heroku.com\/reports?ts=1716063626&sid=c4c9725f-1ab0-44d8-820f-430df2718e11&s=BgIEG0eTJ5wn1l6S7qWgUztdss6eGyHP9HA43MXzQDw%3D\"}]}\n2 < Reporting-Endpoints: heroku-nel=https:\/\/nel.heroku.com\/reports?ts=1716063626&sid=c4c9725f-1ab0-44d8-820f-430df2718e11&s=BgIEG0eTJ5wn1l6S7qWgUztdss6eGyHP9HA43MXzQDw%3D\n2 < Nel: {\"report_to\":\"heroku-nel\",\"max_age\":3600,\"success_fraction\":0.005,\"failure_fraction\":0.05,\"response_headers\":[\"Via\"]}\n2 < X-Powered-By: Express\n2 < Access-Control-Allow-Origin: *\n2 < Etag: W\/\"2c1-N6Rqerxquq2kgQhL51EiSg4x0R8\"\n2 < Via: 1.1 vegur\n2 < Cache-Control: max-age=14400\n2 < CF-Cache-Status: HIT\n2 < Age: 1806\n2 < Vary: Accept-Encoding\n2 < Server: cloudflare\n2 < CF-RAY: 88652a0c1edd8d9c-MIA\n{\"page\":1,\"per_page\":6,\"total\":12,\"total_pages\":2,\"data\":[{\"id\":1,\"name\":\"cerulean\",\"year\":2000,\"color\":\"#98B2D1\",\"pantone_value\":\"15-4020\"},{\"id\":2,\"name\":\"fuchsia rose\",\"year\":2001,\"color\":\"#C74375\",\"pantone_value\":\"17-2031\"},{\"id\":3,\"name\":\"true red\",\"year\":2002,\"color\":\"#BF1932\",\"pantone_value\":\"19-1664\"},{\"id\":4,\"name\":\"aqua sky\",\"year\":2003,\"color\":\"#7BC4C4\",\"pantone_value\":\"14-4811\"},{\"id\":5,\"name\":\"tigerlily\",\"year\":2004,\"color\":\"#E2583E\",\"pantone_value\":\"17-1456\"},{\"id\":6,\"name\":\"blue turquoise\",\"year\":2005,\"color\":\"#53B0AE\",\"pantone_value\":\"15-5217\"}],\"support\":{\"url\":\"https:\/\/reqres.in\/#support-heading\",\"text\":\"To keep ReqRes free, contributions towards server costs are appreciated!\"}}\n\n"},{"result":{"nanos":18800,"millis":0.0188,"status":"passed"},"step":{"line":10,"prefix":"Then","index":2,"text":"status 200"}},{"result":{"nanos":208011700,"errorMessage":"match failed: EQUALS\n  $ | actual path does not exist (STRING:NUMBER)\n  '#notpresent'\n  1\n\nsrc\/test\/java\/reqresIn\/get\/reqres-in-get.feature:12","millis":208.0117,"status":"failed"},"step":{"comments":["##And match $ == responseSuccessful"],"line":12,"prefix":"And","index":3,"text":"match $.id == 1"},"stepLog":"10:36:44.214 src\/test\/java\/reqresIn\/get\/reqres-in-get.feature:12\nAnd match $.id == 1\nmatch failed: EQUALS\n  $ | actual path does not exist (STRING:NUMBER)\n  '#notpresent'\n  1\n\nsrc\/test\/java\/reqresIn\/get\/reqres-in-get.feature:12\n"}],"line":6,"description":"","durationMillis":3389.9068,"failed":true,"error":"match failed: EQUALS\n  $ | actual path does not exist (STRING:NUMBER)\n  '#notpresent'\n  1\n\nsrc\/test\/java\/reqresIn\/get\/reqres-in-get.feature:12","executorName":"main","name":"Get a user","startTime":1716133000328,"refId":"[1:6]","endTime":1716133004214,"exampleIndex":-1}],"callDepth":0,"name":"Get user on regres","description":"","resultDate":"2024-05-19 10:36:44 AM","durationMillis":3389.9068,"passedCount":0}