{"failedCount":0,"prefixedPath":"src\/test\/java\/reqresIn\/Getall\/getall.feature","packageQualifiedName":"src.test.java.reqresIn.Getall.getall","loopIndex":-1,"relativePath":"src\/test\/java\/reqresIn\/Getall\/getall.feature","scenarioResults":[{"sectionIndex":0,"stepResults":[{"result":{"nanos":1803700,"millis":1.8037,"status":"passed"},"step":{"background":true,"line":4,"prefix":"*","index":0,"text":"url 'https:\/\/reqres.in\/api'"}},{"result":{"nanos":1451072400,"millis":1451.0724,"status":"passed"},"step":{"line":7,"prefix":"*","index":0,"text":"call read(\"..\/post\/regres-in-post.feature@Create\")"},"callResults":[{"failedCount":0,"prefixedPath":"src\/test\/java\/reqresIn\/Getall\/..\/post\/regres-in-post.feature","packageQualifiedName":"src.test.java.reqresIn.Getall.post.regres-in-post","loopIndex":-1,"relativePath":"src\/test\/java\/reqresIn\/Getall\/..\/post\/regres-in-post.feature","scenarioResults":[{"sectionIndex":0,"stepResults":[{"result":{"nanos":883400,"millis":0.8834,"status":"passed"},"step":{"line":4,"prefix":"Given","index":0,"text":"url  \"https:\/\/reqres.in\/api\/users\""}},{"result":{"nanos":60886200,"millis":60.8862,"status":"passed"},"step":{"line":5,"prefix":"And","index":1,"text":"request {\"email\": \"vic@gmail.com\"}"}},{"result":{"nanos":1358069800,"millis":1358.0698,"status":"passed"},"step":{"line":6,"prefix":"When","index":2,"text":"method post"},"stepLog":"19:43:03.653 request:\n1 > POST https:\/\/reqres.in\/api\/users\n1 > Content-Type: application\/json; charset=UTF-8\n1 > Content-Length: 25\n1 > Host: reqres.in\n1 > Connection: Keep-Alive\n1 > User-Agent: Apache-HttpClient\/4.5.13 (Java\/1.8.0_202)\n1 > Accept-Encoding: gzip,deflate\n{\"email\":\"vic@gmail.com\"}\n\n19:43:04.350 response time in milliseconds: 697\n1 < 201\n1 < Date: Sun, 19 May 2024 00:43:04 GMT\n1 < Content-Type: application\/json; charset=utf-8\n1 < Content-Length: 75\n1 < Connection: keep-alive\n1 < Report-To: {\"group\":\"heroku-nel\",\"max_age\":3600,\"endpoints\":[{\"url\":\"https:\/\/nel.heroku.com\/reports?ts=1716079384&sid=c4c9725f-1ab0-44d8-820f-430df2718e11&s=eyqNWZZc0nQTn9yJBJQqnblNq2vq8pSY9zLvQfd8jvE%3D\"}]}\n1 < Reporting-Endpoints: heroku-nel=https:\/\/nel.heroku.com\/reports?ts=1716079384&sid=c4c9725f-1ab0-44d8-820f-430df2718e11&s=eyqNWZZc0nQTn9yJBJQqnblNq2vq8pSY9zLvQfd8jvE%3D\n1 < Nel: {\"report_to\":\"heroku-nel\",\"max_age\":3600,\"success_fraction\":0.005,\"failure_fraction\":0.05,\"response_headers\":[\"Via\"]}\n1 < X-Powered-By: Express\n1 < Access-Control-Allow-Origin: *\n1 < Etag: W\/\"4b-0jWC86VOn+bw4nVsu2GaDFqOQK0\"\n1 < Via: 1.1 vegur\n1 < CF-Cache-Status: DYNAMIC\n1 < Server: cloudflare\n1 < CF-RAY: 88600cfa2f5009a6-MIA\n{\"email\":\"vic@gmail.com\",\"id\":\"433\",\"createdAt\":\"2024-05-19T00:43:04.862Z\"}\n\n"},{"result":{"nanos":12600,"millis":0.0126,"status":"passed"},"step":{"line":7,"prefix":"Then","index":3,"text":"status 201"}},{"result":{"nanos":5608900,"millis":5.6089,"status":"passed"},"step":{"line":8,"prefix":"And","index":4,"text":"def contactId = $.id"}}],"line":3,"description":"","durationMillis":1425.4609,"failed":false,"tags":["Create"],"executorName":"main","name":"","startTime":1716079382930,"refId":"[1:3]","endTime":1716079384352,"exampleIndex":-1}],"callDepth":1,"name":"Reusable scenarios for post a user","description":"","resultDate":"2024-05-18 07:43:04 PM","durationMillis":1425.4609,"passedCount":1}]},{"result":{"nanos":495200,"millis":0.4952,"status":"passed"},"step":{"line":8,"prefix":"Given","index":1,"text":"path 'users'"}},{"result":{"nanos":396036600,"millis":396.0366,"status":"passed"},"step":{"line":9,"prefix":"When","index":2,"text":"method get"},"stepLog":"19:43:04.363 request:\n2 > GET https:\/\/reqres.in\/api\/users\n2 > Host: reqres.in\n2 > Connection: Keep-Alive\n2 > User-Agent: Apache-HttpClient\/4.5.13 (Java\/1.8.0_202)\n2 > Accept-Encoding: gzip,deflate\n\n\n19:43:04.757 response time in milliseconds: 394\n2 < 200\n2 < Date: Sun, 19 May 2024 00:43:05 GMT\n2 < Content-Type: application\/json; charset=utf-8\n2 < Transfer-Encoding: chunked\n2 < Connection: keep-alive\n2 < Report-To: {\"group\":\"heroku-nel\",\"max_age\":3600,\"endpoints\":[{\"url\":\"https:\/\/nel.heroku.com\/reports?ts=1716008367&sid=c4c9725f-1ab0-44d8-820f-430df2718e11&s=uBz%2BPDHMKlsM5wEG1jq0rwJUrChPyeD25pGbD9K47NA%3D\"}]}\n2 < Reporting-Endpoints: heroku-nel=https:\/\/nel.heroku.com\/reports?ts=1716008367&sid=c4c9725f-1ab0-44d8-820f-430df2718e11&s=uBz%2BPDHMKlsM5wEG1jq0rwJUrChPyeD25pGbD9K47NA%3D\n2 < Nel: {\"report_to\":\"heroku-nel\",\"max_age\":3600,\"success_fraction\":0.005,\"failure_fraction\":0.05,\"response_headers\":[\"Via\"]}\n2 < X-Powered-By: Express\n2 < Access-Control-Allow-Origin: *\n2 < Etag: W\/\"3e4-2RLXvr5wTg9YQ6aH95CkYoFNuO8\"\n2 < Via: 1.1 vegur\n2 < Cache-Control: max-age=14400\n2 < CF-Cache-Status: HIT\n2 < Age: 3189\n2 < Vary: Accept-Encoding\n2 < Server: cloudflare\n2 < CF-RAY: 88600cfdd9dedaad-MIA\n{\"page\":1,\"per_page\":6,\"total\":12,\"total_pages\":2,\"data\":[{\"id\":1,\"email\":\"george.bluth@reqres.in\",\"first_name\":\"George\",\"last_name\":\"Bluth\",\"avatar\":\"https:\/\/reqres.in\/img\/faces\/1-image.jpg\"},{\"id\":2,\"email\":\"janet.weaver@reqres.in\",\"first_name\":\"Janet\",\"last_name\":\"Weaver\",\"avatar\":\"https:\/\/reqres.in\/img\/faces\/2-image.jpg\"},{\"id\":3,\"email\":\"emma.wong@reqres.in\",\"first_name\":\"Emma\",\"last_name\":\"Wong\",\"avatar\":\"https:\/\/reqres.in\/img\/faces\/3-image.jpg\"},{\"id\":4,\"email\":\"eve.holt@reqres.in\",\"first_name\":\"Eve\",\"last_name\":\"Holt\",\"avatar\":\"https:\/\/reqres.in\/img\/faces\/4-image.jpg\"},{\"id\":5,\"email\":\"charles.morris@reqres.in\",\"first_name\":\"Charles\",\"last_name\":\"Morris\",\"avatar\":\"https:\/\/reqres.in\/img\/faces\/5-image.jpg\"},{\"id\":6,\"email\":\"tracey.ramos@reqres.in\",\"first_name\":\"Tracey\",\"last_name\":\"Ramos\",\"avatar\":\"https:\/\/reqres.in\/img\/faces\/6-image.jpg\"}],\"support\":{\"url\":\"https:\/\/reqres.in\/#support-heading\",\"text\":\"To keep ReqRes free, contributions towards server costs are appreciated!\"}}\n\n"},{"result":{"nanos":7500,"millis":0.0075,"status":"passed"},"step":{"line":10,"prefix":"Then","index":3,"text":"status 200"}},{"result":{"nanos":85741100,"millis":85.7411,"status":"passed"},"step":{"line":11,"prefix":"And","index":4,"text":"match response.data[*].id != contactId"}}],"executorName":"main","line":6,"name":"Get the complete list of users and verify the deleted user is not present","description":"","durationMillis":1935.1565,"startTime":1716079382625,"failed":false,"refId":"[1:6]","endTime":1716079384839,"exampleIndex":-1}],"callDepth":0,"name":"User management in Reqres API","description":"","resultDate":"2024-05-18 07:43:04 PM","durationMillis":1935.1565,"passedCount":1}