{"failedCount":0,"prefixedPath":"src\/test\/java\/reqresIn\/Getall\/getall.feature","packageQualifiedName":"src.test.java.reqresIn.Getall.getall","loopIndex":-1,"relativePath":"src\/test\/java\/reqresIn\/Getall\/getall.feature","scenarioResults":[{"sectionIndex":0,"stepResults":[{"result":{"nanos":2688500,"millis":2.6885,"status":"passed"},"step":{"background":true,"line":4,"prefix":"*","index":0,"text":"url 'https:\/\/reqres.in\/api'"}},{"result":{"nanos":2813380200,"millis":2813.3802,"status":"passed"},"step":{"line":7,"prefix":"*","index":0,"text":"call read(\"..\/delete\/delete.feature@Create\")"},"callResults":[{"failedCount":0,"prefixedPath":"src\/test\/java\/reqresIn\/Getall\/..\/delete\/delete.feature","packageQualifiedName":"src.test.java.reqresIn.Getall.delete.delete","loopIndex":-1,"relativePath":"src\/test\/java\/reqresIn\/Getall\/..\/delete\/delete.feature","scenarioResults":[{"sectionIndex":0,"stepResults":[{"result":{"nanos":2095023500,"millis":2095.0235,"status":"passed"},"step":{"line":4,"prefix":"*","index":0,"text":"call read(\"..\/get\/reqres-in-get.feature@Create\")"},"callResults":[{"failedCount":0,"prefixedPath":"src\/test\/java\/reqresIn\/Getall\/..\/get\/reqres-in-get.feature","packageQualifiedName":"src.test.java.reqresIn.Getall.get.reqres-in-get","loopIndex":-1,"relativePath":"src\/test\/java\/reqresIn\/Getall\/..\/get\/reqres-in-get.feature","scenarioResults":[{"sectionIndex":0,"stepResults":[{"result":{"nanos":613600,"millis":0.6136,"status":"passed"},"step":{"line":4,"prefix":"Given","index":0,"text":"url 'https:\/\/reqres.in\/api'"}},{"result":{"nanos":696200,"millis":0.6962,"status":"passed"},"step":{"line":5,"prefix":"When","index":1,"text":"path '\/users\/1'"}},{"result":{"nanos":2006968400,"millis":2006.9684,"status":"passed"},"step":{"line":6,"prefix":"And","index":2,"text":"method get"},"stepLog":"14:12:20.262 request:\n1 > GET https:\/\/reqres.in\/api\/users\/1\n1 > Host: reqres.in\n1 > Connection: Keep-Alive\n1 > User-Agent: Apache-HttpClient\/4.5.13 (Java\/1.8.0_202)\n1 > Accept-Encoding: gzip,deflate\n\n\n14:12:20.883 response time in milliseconds: 606\n1 < 200\n1 < Date: Sun, 19 May 2024 19:12:21 GMT\n1 < Content-Type: application\/json; charset=utf-8\n1 < Transfer-Encoding: chunked\n1 < Connection: keep-alive\n1 < Report-To: {\"group\":\"heroku-nel\",\"max_age\":3600,\"endpoints\":[{\"url\":\"https:\/\/nel.heroku.com\/reports?ts=1715096534&sid=c4c9725f-1ab0-44d8-820f-430df2718e11&s=vKFh6aVD38lGD1ca893ztNMWPRSmD8d7yJy5wKnN8sE%3D\"}]}\n1 < Reporting-Endpoints: heroku-nel=https:\/\/nel.heroku.com\/reports?ts=1715096534&sid=c4c9725f-1ab0-44d8-820f-430df2718e11&s=vKFh6aVD38lGD1ca893ztNMWPRSmD8d7yJy5wKnN8sE%3D\n1 < Nel: {\"report_to\":\"heroku-nel\",\"max_age\":3600,\"success_fraction\":0.005,\"failure_fraction\":0.05,\"response_headers\":[\"Via\"]}\n1 < X-Powered-By: Express\n1 < Access-Control-Allow-Origin: *\n1 < Etag: W\/\"118-P3iKcVpIgCj9HqYeOOrGLX8qJVc\"\n1 < Via: 1.1 vegur\n1 < Cache-Control: max-age=14400\n1 < CF-Cache-Status: HIT\n1 < Age: 5262\n1 < Vary: Accept-Encoding\n1 < Server: cloudflare\n1 < CF-RAY: 886665e5ba115c7f-MIA\n{\"data\":{\"id\":1,\"email\":\"george.bluth@reqres.in\",\"first_name\":\"George\",\"last_name\":\"Bluth\",\"avatar\":\"https:\/\/reqres.in\/img\/faces\/1-image.jpg\"},\"support\":{\"url\":\"https:\/\/reqres.in\/#support-heading\",\"text\":\"To keep ReqRes free, contributions towards server costs are appreciated!\"}}\n\n"},{"result":{"nanos":30100,"millis":0.0301,"status":"passed"},"step":{"line":7,"prefix":"Then","index":3,"text":"status 200"}},{"result":{"nanos":69045500,"millis":69.0455,"status":"passed"},"step":{"line":8,"prefix":"And","index":4,"text":"match response.data.id == 1"}},{"result":{"nanos":1419600,"millis":1.4196,"status":"passed"},"step":{"line":9,"prefix":"*","index":5,"text":"def contactId = response.data.id"}}],"line":3,"description":"","durationMillis":2078.7734,"failed":false,"tags":["Create"],"executorName":"main","name":"Get for id","startTime":1716145938970,"refId":"[1:3]","endTime":1716145941048,"exampleIndex":-1}],"callDepth":2,"name":"Consultar usuario por ID","description":"","resultDate":"2024-05-19 02:12:22 PM","durationMillis":2078.7734,"passedCount":1}]},{"result":{"nanos":31807100,"millis":31.8071,"status":"passed"},"step":{"line":5,"prefix":"Given","index":1,"text":"url  \"https:\/\/reqres.in\" + \"\/api\/users\" + contactId"}},{"result":{"nanos":641188100,"millis":641.1881,"status":"passed"},"step":{"line":6,"prefix":"When","index":2,"text":"method delete"},"stepLog":"14:12:21.080 request:\n2 > DELETE https:\/\/reqres.in\/api\/users1\n2 > Host: reqres.in\n2 > Connection: Keep-Alive\n2 > User-Agent: Apache-HttpClient\/4.5.13 (Java\/1.8.0_202)\n2 > Accept-Encoding: gzip,deflate\n\n\n14:12:21.712 response time in milliseconds: 632\n2 < 204\n2 < Date: Sun, 19 May 2024 19:12:22 GMT\n2 < Content-Length: 0\n2 < Connection: keep-alive\n2 < Report-To: {\"group\":\"heroku-nel\",\"max_age\":3600,\"endpoints\":[{\"url\":\"https:\/\/nel.heroku.com\/reports?ts=1716145942&sid=c4c9725f-1ab0-44d8-820f-430df2718e11&s=BSpeRq2eheRbrSEWwLf1ILdKJKz5fq0Em8A2kY4sjqM%3D\"}]}\n2 < Reporting-Endpoints: heroku-nel=https:\/\/nel.heroku.com\/reports?ts=1716145942&sid=c4c9725f-1ab0-44d8-820f-430df2718e11&s=BSpeRq2eheRbrSEWwLf1ILdKJKz5fq0Em8A2kY4sjqM%3D\n2 < Nel: {\"report_to\":\"heroku-nel\",\"max_age\":3600,\"success_fraction\":0.005,\"failure_fraction\":0.05,\"response_headers\":[\"Via\"]}\n2 < X-Powered-By: Express\n2 < Access-Control-Allow-Origin: *\n2 < Etag: W\/\"2-vyGp6PvFo4RvsFtPoIWeCReyIC8\"\n2 < Via: 1.1 vegur\n2 < CF-Cache-Status: DYNAMIC\n2 < Server: cloudflare\n2 < CF-RAY: 886665e94fc825af-MIA\n\n\n"},{"result":{"nanos":18400,"millis":0.0184,"status":"passed"},"step":{"line":7,"prefix":"Then","index":3,"text":"status 204"}},{"result":{"nanos":7386700,"millis":7.3867,"status":"passed"},"step":{"line":8,"prefix":"And","index":4,"text":"def contactId = response.id"}}],"line":3,"description":"","durationMillis":2775.4238,"failed":false,"tags":["Create"],"executorName":"main","name":"Delete a user","startTime":1716145938958,"refId":"[1:3]","endTime":1716145941727,"exampleIndex":-1}],"callDepth":1,"name":"Delete user on regres","description":"","resultDate":"2024-05-19 02:12:22 PM","durationMillis":2775.4238,"passedCount":1}]},{"result":{"nanos":591700,"millis":0.5917,"status":"passed"},"step":{"line":8,"prefix":"Given","index":1,"text":"path 'users'"}},{"result":{"nanos":332631300,"millis":332.6313,"status":"passed"},"step":{"line":9,"prefix":"When","index":2,"text":"method get"},"stepLog":"14:12:21.727 request:\n3 > GET https:\/\/reqres.in\/api\/users\n3 > Host: reqres.in\n3 > Connection: Keep-Alive\n3 > User-Agent: Apache-HttpClient\/4.5.13 (Java\/1.8.0_202)\n3 > Accept-Encoding: gzip,deflate\n\n\n14:12:22.066 response time in milliseconds: 339\n3 < 200\n3 < Date: Sun, 19 May 2024 19:12:22 GMT\n3 < Content-Type: application\/json; charset=utf-8\n3 < Transfer-Encoding: chunked\n3 < Connection: keep-alive\n3 < Report-To: {\"group\":\"heroku-nel\",\"max_age\":3600,\"endpoints\":[{\"url\":\"https:\/\/nel.heroku.com\/reports?ts=1716008367&sid=c4c9725f-1ab0-44d8-820f-430df2718e11&s=uBz%2BPDHMKlsM5wEG1jq0rwJUrChPyeD25pGbD9K47NA%3D\"}]}\n3 < Reporting-Endpoints: heroku-nel=https:\/\/nel.heroku.com\/reports?ts=1716008367&sid=c4c9725f-1ab0-44d8-820f-430df2718e11&s=uBz%2BPDHMKlsM5wEG1jq0rwJUrChPyeD25pGbD9K47NA%3D\n3 < Nel: {\"report_to\":\"heroku-nel\",\"max_age\":3600,\"success_fraction\":0.005,\"failure_fraction\":0.05,\"response_headers\":[\"Via\"]}\n3 < X-Powered-By: Express\n3 < Access-Control-Allow-Origin: *\n3 < Etag: W\/\"3e4-2RLXvr5wTg9YQ6aH95CkYoFNuO8\"\n3 < Via: 1.1 vegur\n3 < Cache-Control: max-age=14400\n3 < CF-Cache-Status: HIT\n3 < Age: 2047\n3 < Vary: Accept-Encoding\n3 < Server: cloudflare\n3 < CF-RAY: 886665ed49aa333d-MIA\n{\"page\":1,\"per_page\":6,\"total\":12,\"total_pages\":2,\"data\":[{\"id\":1,\"email\":\"george.bluth@reqres.in\",\"first_name\":\"George\",\"last_name\":\"Bluth\",\"avatar\":\"https:\/\/reqres.in\/img\/faces\/1-image.jpg\"},{\"id\":2,\"email\":\"janet.weaver@reqres.in\",\"first_name\":\"Janet\",\"last_name\":\"Weaver\",\"avatar\":\"https:\/\/reqres.in\/img\/faces\/2-image.jpg\"},{\"id\":3,\"email\":\"emma.wong@reqres.in\",\"first_name\":\"Emma\",\"last_name\":\"Wong\",\"avatar\":\"https:\/\/reqres.in\/img\/faces\/3-image.jpg\"},{\"id\":4,\"email\":\"eve.holt@reqres.in\",\"first_name\":\"Eve\",\"last_name\":\"Holt\",\"avatar\":\"https:\/\/reqres.in\/img\/faces\/4-image.jpg\"},{\"id\":5,\"email\":\"charles.morris@reqres.in\",\"first_name\":\"Charles\",\"last_name\":\"Morris\",\"avatar\":\"https:\/\/reqres.in\/img\/faces\/5-image.jpg\"},{\"id\":6,\"email\":\"tracey.ramos@reqres.in\",\"first_name\":\"Tracey\",\"last_name\":\"Ramos\",\"avatar\":\"https:\/\/reqres.in\/img\/faces\/6-image.jpg\"}],\"support\":{\"url\":\"https:\/\/reqres.in\/#support-heading\",\"text\":\"To keep ReqRes free, contributions towards server costs are appreciated!\"}}\n\n"},{"result":{"nanos":31900,"millis":0.0319,"status":"passed"},"step":{"line":10,"prefix":"Then","index":3,"text":"status 200"}},{"result":{"nanos":1085100,"millis":1.0851,"status":"passed"},"step":{"line":11,"prefix":"And","index":4,"text":"match response.data[*].id != contactId"}}],"executorName":"main","line":6,"name":"Get the complete list of users and verify the deleted user is not present","description":"","durationMillis":3150.4087,"startTime":1716145938423,"failed":false,"refId":"[1:6]","endTime":1716145942066,"exampleIndex":-1}],"callDepth":0,"name":"User management in Reqres API","description":"","resultDate":"2024-05-19 02:12:22 PM","durationMillis":3150.4087,"passedCount":1}