{"failedCount":1,"prefixedPath":"src\/test\/java\/reqresIn\/get\/reqres-in-get.feature","packageQualifiedName":"src.test.java.reqresIn.get.reqres-in-get","loopIndex":-1,"relativePath":"src\/test\/java\/reqresIn\/get\/reqres-in-get.feature","scenarioResults":[{"sectionIndex":1,"stepResults":[{"result":{"nanos":116322200,"millis":116.3222,"status":"passed"},"step":{"background":true,"line":4,"prefix":"*","index":0,"text":"def responseSuccessful = read(\"successful-response-get.json\")"}},{"result":{"nanos":7875700,"millis":7.8757,"status":"passed"},"step":{"line":12,"prefix":"Given","index":0,"text":"url \"https:\/\/reqres.in\" + \"\/api\/users\""}},{"result":{"nanos":1550606000,"millis":1550.606,"status":"passed"},"step":{"line":13,"prefix":"When","index":1,"text":"method get"},"stepLog":"18:49:55.325 request:\n1 > GET https:\/\/reqres.in\/api\/users\n1 > Host: reqres.in\n1 > Connection: Keep-Alive\n1 > User-Agent: Apache-HttpClient\/4.5.13 (Java\/1.8.0_202)\n1 > Accept-Encoding: gzip,deflate\n\n\n18:49:56.278 response time in milliseconds: 953\n1 < 200\n1 < Date: Sat, 18 May 2024 23:49:56 GMT\n1 < Content-Type: application\/json; charset=utf-8\n1 < Transfer-Encoding: chunked\n1 < Connection: keep-alive\n1 < Report-To: {\"group\":\"heroku-nel\",\"max_age\":3600,\"endpoints\":[{\"url\":\"https:\/\/nel.heroku.com\/reports?ts=1716008367&sid=c4c9725f-1ab0-44d8-820f-430df2718e11&s=uBz%2BPDHMKlsM5wEG1jq0rwJUrChPyeD25pGbD9K47NA%3D\"}]}\n1 < Reporting-Endpoints: heroku-nel=https:\/\/nel.heroku.com\/reports?ts=1716008367&sid=c4c9725f-1ab0-44d8-820f-430df2718e11&s=uBz%2BPDHMKlsM5wEG1jq0rwJUrChPyeD25pGbD9K47NA%3D\n1 < Nel: {\"report_to\":\"heroku-nel\",\"max_age\":3600,\"success_fraction\":0.005,\"failure_fraction\":0.05,\"response_headers\":[\"Via\"]}\n1 < X-Powered-By: Express\n1 < Access-Control-Allow-Origin: *\n1 < Etag: W\/\"3e4-2RLXvr5wTg9YQ6aH95CkYoFNuO8\"\n1 < Via: 1.1 vegur\n1 < Cache-Control: max-age=14400\n1 < CF-Cache-Status: REVALIDATED\n1 < Vary: Accept-Encoding\n1 < Server: cloudflare\n1 < CF-RAY: 885fbf24b9e02593-MIA\n{\"page\":1,\"per_page\":6,\"total\":12,\"total_pages\":2,\"data\":[{\"id\":1,\"email\":\"george.bluth@reqres.in\",\"first_name\":\"George\",\"last_name\":\"Bluth\",\"avatar\":\"https:\/\/reqres.in\/img\/faces\/1-image.jpg\"},{\"id\":2,\"email\":\"janet.weaver@reqres.in\",\"first_name\":\"Janet\",\"last_name\":\"Weaver\",\"avatar\":\"https:\/\/reqres.in\/img\/faces\/2-image.jpg\"},{\"id\":3,\"email\":\"emma.wong@reqres.in\",\"first_name\":\"Emma\",\"last_name\":\"Wong\",\"avatar\":\"https:\/\/reqres.in\/img\/faces\/3-image.jpg\"},{\"id\":4,\"email\":\"eve.holt@reqres.in\",\"first_name\":\"Eve\",\"last_name\":\"Holt\",\"avatar\":\"https:\/\/reqres.in\/img\/faces\/4-image.jpg\"},{\"id\":5,\"email\":\"charles.morris@reqres.in\",\"first_name\":\"Charles\",\"last_name\":\"Morris\",\"avatar\":\"https:\/\/reqres.in\/img\/faces\/5-image.jpg\"},{\"id\":6,\"email\":\"tracey.ramos@reqres.in\",\"first_name\":\"Tracey\",\"last_name\":\"Ramos\",\"avatar\":\"https:\/\/reqres.in\/img\/faces\/6-image.jpg\"}],\"support\":{\"url\":\"https:\/\/reqres.in\/#support-heading\",\"text\":\"To keep ReqRes free, contributions towards server costs are appreciated!\"}}\n\n"},{"result":{"nanos":13100,"millis":0.0131,"status":"passed"},"step":{"line":14,"prefix":"Then","index":2,"text":"status 200"}},{"result":{"nanos":52077900,"errorMessage":"js failed:\n>>>>\n01: response.data.find(x => x.id == userId) == null\n<<<<\norg.graalvm.polyglot.PolyglotException: ReferenceError: \"userId\" is not defined\n- <js>.:=>(Unnamed:1)\n\nsrc\/test\/java\/reqresIn\/get\/reqres-in-get.feature:15","millis":52.0779,"status":"failed"},"step":{"line":15,"prefix":"And","index":3,"text":"assert response.data.find(x => x.id == userId) == null"},"stepLog":"18:49:56.338 src\/test\/java\/reqresIn\/get\/reqres-in-get.feature:15\nAnd assert response.data.find(x => x.id == userId) == null\njs failed:\n>>>>\n01: response.data.find(x => x.id == userId) == null\n<<<<\norg.graalvm.polyglot.PolyglotException: ReferenceError: \"userId\" is not defined\n- <js>.:=>(Unnamed:1)\n\nsrc\/test\/java\/reqresIn\/get\/reqres-in-get.feature:15\n"}],"line":11,"description":"","durationMillis":1726.8949,"failed":true,"error":"js failed:\n>>>>\n01: response.data.find(x => x.id == userId) == null\n<<<<\norg.graalvm.polyglot.PolyglotException: ReferenceError: \"userId\" is not defined\n- <js>.:=>(Unnamed:1)\n\nsrc\/test\/java\/reqresIn\/get\/reqres-in-get.feature:15","executorName":"main","name":"Get the complete list of users and verify the deleted user is not present","startTime":1716076194323,"refId":"[2:11]","endTime":1716076196338,"exampleIndex":-1}],"callDepth":0,"name":"Get user on regres","description":"","resultDate":"2024-05-18 06:49:56 PM","durationMillis":1726.8949,"passedCount":0}