{"failedCount":0,"prefixedPath":"src\/test\/java\/reqresIn\/Getall\/getall.feature","packageQualifiedName":"src.test.java.reqresIn.Getall.getall","loopIndex":-1,"relativePath":"src\/test\/java\/reqresIn\/Getall\/getall.feature","scenarioResults":[{"sectionIndex":0,"stepResults":[{"result":{"nanos":1582100,"millis":1.5821,"status":"passed"},"step":{"background":true,"line":4,"prefix":"*","index":0,"text":"url 'https:\/\/reqres.in\/api'"}},{"result":{"nanos":1430569500,"millis":1430.5695,"status":"passed"},"step":{"line":7,"prefix":"*","index":0,"text":"call read(\"..\/post\/regres-in-post.feature@Create\")"},"callResults":[{"failedCount":0,"prefixedPath":"src\/test\/java\/reqresIn\/Getall\/..\/post\/regres-in-post.feature","packageQualifiedName":"src.test.java.reqresIn.Getall.post.regres-in-post","loopIndex":-1,"relativePath":"src\/test\/java\/reqresIn\/Getall\/..\/post\/regres-in-post.feature","scenarioResults":[{"sectionIndex":0,"stepResults":[{"result":{"nanos":459100,"millis":0.4591,"status":"passed"},"step":{"background":true,"line":5,"prefix":"*","index":0,"text":"url \"https:\/\/reqres.in\""}},{"result":{"nanos":298600,"millis":0.2986,"status":"passed"},"step":{"background":true,"line":6,"prefix":"*","index":1,"text":"path \"\/api\/users\/\""}},{"result":{"nanos":68900900,"millis":68.9009,"status":"passed"},"step":{"background":true,"line":7,"prefix":"*","index":2,"text":"def var = { \"username\": \"vic\", \"email\": \"victor@gmail.com\", \"password\": \"123\" }"}},{"result":{"nanos":7482900,"millis":7.4829,"status":"passed"},"step":{"line":10,"prefix":"Given","index":0,"text":"request var"}},{"result":{"nanos":1328974500,"millis":1328.9745,"status":"passed"},"step":{"line":11,"prefix":"When","index":1,"text":"method post"},"stepLog":"11:47:33.466 request:\n1 > POST https:\/\/reqres.in\/api\/users\n1 > Content-Type: application\/json; charset=UTF-8\n1 > Content-Length: 62\n1 > Host: reqres.in\n1 > Connection: Keep-Alive\n1 > User-Agent: Apache-HttpClient\/4.5.13 (Java\/1.8.0_202)\n1 > Accept-Encoding: gzip,deflate\n{\"username\":\"vic\",\"email\":\"victor@gmail.com\",\"password\":\"123\"}\n\n11:47:34.140 response time in milliseconds: 674\n1 < 201\n1 < Date: Sun, 19 May 2024 16:47:34 GMT\n1 < Content-Type: application\/json; charset=utf-8\n1 < Content-Length: 112\n1 < Connection: keep-alive\n1 < Report-To: {\"group\":\"heroku-nel\",\"max_age\":3600,\"endpoints\":[{\"url\":\"https:\/\/nel.heroku.com\/reports?ts=1716137254&sid=c4c9725f-1ab0-44d8-820f-430df2718e11&s=iBzNiLFiLTj8MFmvvFCv98fedzyM9bxRoiO%2FLF96178%3D\"}]}\n1 < Reporting-Endpoints: heroku-nel=https:\/\/nel.heroku.com\/reports?ts=1716137254&sid=c4c9725f-1ab0-44d8-820f-430df2718e11&s=iBzNiLFiLTj8MFmvvFCv98fedzyM9bxRoiO%2FLF96178%3D\n1 < Nel: {\"report_to\":\"heroku-nel\",\"max_age\":3600,\"success_fraction\":0.005,\"failure_fraction\":0.05,\"response_headers\":[\"Via\"]}\n1 < X-Powered-By: Express\n1 < Access-Control-Allow-Origin: *\n1 < Etag: W\/\"70-YYPN\/n1\/1AmwNwMSZBTYUgSBC3A\"\n1 < Via: 1.1 vegur\n1 < CF-Cache-Status: DYNAMIC\n1 < Server: cloudflare\n1 < CF-RAY: 886591cf291b31e9-MIA\n{\"username\":\"vic\",\"email\":\"victor@gmail.com\",\"password\":\"123\",\"id\":\"404\",\"createdAt\":\"2024-05-19T16:47:34.465Z\"}\n\n"},{"result":{"nanos":17500,"millis":0.0175,"status":"passed"},"step":{"line":12,"prefix":"Then","index":2,"text":"status 201"}},{"result":{"nanos":916800,"millis":0.9168,"status":"passed"},"step":{"line":13,"prefix":"And","index":3,"text":"def contactId = response.id"}}],"line":9,"description":"","durationMillis":1407.0503,"failed":false,"tags":["Create","ignore"],"executorName":"main","name":"Post a user","startTime":1716137252735,"refId":"[1:9]","endTime":1716137254140,"exampleIndex":-1}],"callDepth":1,"name":"Reusable scenarios for post a user","description":"","resultDate":"2024-05-19 11:47:34 AM","durationMillis":1407.0503,"passedCount":1}]},{"result":{"nanos":472800,"millis":0.4728,"status":"passed"},"step":{"line":8,"prefix":"Given","index":1,"text":"path 'users'"}},{"result":{"nanos":341173500,"millis":341.1735,"status":"passed"},"step":{"line":9,"prefix":"When","index":2,"text":"method get"},"stepLog":"11:47:34.140 request:\n2 > GET https:\/\/reqres.in\/api\/users\n2 > Host: reqres.in\n2 > Connection: Keep-Alive\n2 > User-Agent: Apache-HttpClient\/4.5.13 (Java\/1.8.0_202)\n2 > Accept-Encoding: gzip,deflate\n\n\n11:47:34.489 response time in milliseconds: 349\n2 < 200\n2 < Date: Sun, 19 May 2024 16:47:34 GMT\n2 < Content-Type: application\/json; charset=utf-8\n2 < Transfer-Encoding: chunked\n2 < Connection: keep-alive\n2 < Report-To: {\"group\":\"heroku-nel\",\"max_age\":3600,\"endpoints\":[{\"url\":\"https:\/\/nel.heroku.com\/reports?ts=1716008367&sid=c4c9725f-1ab0-44d8-820f-430df2718e11&s=uBz%2BPDHMKlsM5wEG1jq0rwJUrChPyeD25pGbD9K47NA%3D\"}]}\n2 < Reporting-Endpoints: heroku-nel=https:\/\/nel.heroku.com\/reports?ts=1716008367&sid=c4c9725f-1ab0-44d8-820f-430df2718e11&s=uBz%2BPDHMKlsM5wEG1jq0rwJUrChPyeD25pGbD9K47NA%3D\n2 < Nel: {\"report_to\":\"heroku-nel\",\"max_age\":3600,\"success_fraction\":0.005,\"failure_fraction\":0.05,\"response_headers\":[\"Via\"]}\n2 < X-Powered-By: Express\n2 < Access-Control-Allow-Origin: *\n2 < Etag: W\/\"3e4-2RLXvr5wTg9YQ6aH95CkYoFNuO8\"\n2 < Via: 1.1 vegur\n2 < Cache-Control: max-age=14400\n2 < CF-Cache-Status: HIT\n2 < Age: 2820\n2 < Vary: Accept-Encoding\n2 < Server: cloudflare\n2 < CF-RAY: 886591d2ecb73dcd-MIA\n{\"page\":1,\"per_page\":6,\"total\":12,\"total_pages\":2,\"data\":[{\"id\":1,\"email\":\"george.bluth@reqres.in\",\"first_name\":\"George\",\"last_name\":\"Bluth\",\"avatar\":\"https:\/\/reqres.in\/img\/faces\/1-image.jpg\"},{\"id\":2,\"email\":\"janet.weaver@reqres.in\",\"first_name\":\"Janet\",\"last_name\":\"Weaver\",\"avatar\":\"https:\/\/reqres.in\/img\/faces\/2-image.jpg\"},{\"id\":3,\"email\":\"emma.wong@reqres.in\",\"first_name\":\"Emma\",\"last_name\":\"Wong\",\"avatar\":\"https:\/\/reqres.in\/img\/faces\/3-image.jpg\"},{\"id\":4,\"email\":\"eve.holt@reqres.in\",\"first_name\":\"Eve\",\"last_name\":\"Holt\",\"avatar\":\"https:\/\/reqres.in\/img\/faces\/4-image.jpg\"},{\"id\":5,\"email\":\"charles.morris@reqres.in\",\"first_name\":\"Charles\",\"last_name\":\"Morris\",\"avatar\":\"https:\/\/reqres.in\/img\/faces\/5-image.jpg\"},{\"id\":6,\"email\":\"tracey.ramos@reqres.in\",\"first_name\":\"Tracey\",\"last_name\":\"Ramos\",\"avatar\":\"https:\/\/reqres.in\/img\/faces\/6-image.jpg\"}],\"support\":{\"url\":\"https:\/\/reqres.in\/#support-heading\",\"text\":\"To keep ReqRes free, contributions towards server costs are appreciated!\"}}\n\n"},{"result":{"nanos":8000,"millis":0.008,"status":"passed"},"step":{"line":10,"prefix":"Then","index":3,"text":"status 200"}},{"result":{"nanos":101648200,"millis":101.6482,"status":"passed"},"step":{"line":11,"prefix":"And","index":4,"text":"match response.data[*].id != contactId"}}],"executorName":"main","line":6,"name":"Get the complete list of users and verify the deleted user is not present","description":"","durationMillis":1875.4541,"startTime":1716137252431,"failed":false,"refId":"[1:6]","endTime":1716137254590,"exampleIndex":-1}],"callDepth":0,"name":"User management in Reqres API","description":"","resultDate":"2024-05-19 11:47:34 AM","durationMillis":1875.4541,"passedCount":1}